2 0.3099642 0.71125 0.17601432 0.1475
2 0.70883054 0.59525 0.17303103 0.1465
2 0.3099642 0.459 0.17601432 0.147
2 0.70883054 0.329 0.17303103 0.148
2 0.31056085 0.1935 0.17601432 0.147
2 0.70883054 0.8365 0.17303103 0.147
3 0.8690334 0.8365 0.10680191 0.191
3 0.14409308 0.71325 0.10680191 0.1845
3 0.8690334 0.596 0.10680191 0.191
3 0.14409308 0.4555 0.10680191 0.191
3 0.87142 0.33025 0.10680191 0.1915
3 0.14409308 0.1945 0.10680191 0.191
0 0.50447494 0.8365 0.054295942 0.051
0 0.50447494 0.7115 0.054295942 0.054
0 0.5050716 0.32975 0.09009547 0.1565
0 0.5050716 0.19475 0.09128878 0.1705
0 0.50447494 0.58875 0.054295942 0.0515
0 0.50447494 0.459 0.054295942 0.052
0 0.50447494 0.3305 0.054295942 0.049
0 0.50447494 0.195 0.054295942 0.049
0 0.5053699 0.83825 0.090692125 0.1555
0 0.5050716 0.71225 0.09009547 0.1515
0 0.5050716 0.5875 0.09009547 0.151
0 0.5050716 0.45925 0.09009547 0.1585
1 0.5856205 0.8825 0.02326969 0.047
1 0.4197494 0.74625 0.02326969 0.0465
1 0.58800715 0.6295 0.02326969 0.047
1 0.4197494 0.49475 0.02326969 0.0465
1 0.5856205 0.3705 0.02326969 0.047
1 0.4197494 0.23325 0.02326969 0.0465
