2 0.6040204 0.8345 0.09380983 0.021
2 0.22973835 0.1525 0.2425016 0.127
2 0.22973835 0.492 0.2425016 0.127
2 0.22973835 0.8345 0.2425016 0.127
2 0.6040204 0.49125 0.09380983 0.0205
2 0.6046586 0.15225 0.09380983 0.0205
2 0.40682834 0.66425 0.13209955 0.0195
2 0.40682834 0.319 0.12954691 0.02
3 0.2156988 0.1495 0.15698788 0.094
3 0.7338864 0.1525 0.13273771 0.139
3 0.73612 0.49025 0.13848117 0.1385
3 0.73707724 0.8345 0.13911934 0.139
3 0.25047863 0.3225 0.14996809 0.139
3 0.25047863 0.6725 0.14996809 0.139
3 0.2156988 0.49 0.15698788 0.094
3 0.2156988 0.8345 0.15698788 0.094
0 0.5153159 0.8345 0.088704534 0.07
0 0.51563495 0.4915 0.08934269 0.07
0 0.5159541 0.1525 0.088704534 0.07
0 0.51627314 0.6645 0.08934269 0.07
0 0.5159541 0.3195 0.088704534 0.07
1 0.60912573 0.66575 0.041480538 0.0735
1 0.60848755 0.31975 0.041480538 0.0735
1 0.405552 0.49125 0.041480538 0.0735
1 0.405552 0.15225 0.041480538 0.0735
1 0.40682834 0.83525 0.041480538 0.0735
4 0.87364393 0.153 0.10082961 0.07
4 0.71984684 0.32225 0.10465858 0.1015
4 0.8733248 0.5015 0.105296746 0.088
4 0.70804083 0.668 0.09508615 0.076
4 0.86758137 0.8365 0.09380983 0.08
5 0.5178685 0.1515 0.033822592 0.014
5 0.5178685 0.32 0.033822592 0.014
5 0.5172304 0.493 0.033822592 0.014
5 0.5178685 0.665 0.033822592 0.014
5 0.5178685 0.83625 0.033822592 0.0145
6 0.5149968 0.8975 0.07147416 0.074
6 0.5149968 0.74975 0.07147416 0.1155
6 0.5149968 0.578 0.07147416 0.118
6 0.5146777 0.40525 0.072112314 0.1175
6 0.5140396 0.23625 0.06955967 0.1135
6 0.5146777 0.096 0.06828334 0.059
