3 0.18707941 0.8855 0.13997309 0.07
3 0.18707941 0.693 0.13997309 0.07
3 0.64939433 0.8915 0.06325707 0.089
3 0.64939433 0.69925 0.06325707 0.0915
3 0.64939433 0.5055 0.06325707 0.089
3 0.64939433 0.31425 0.06325707 0.0895
3 0.64939433 0.12 0.06325707 0.089
3 0.18707941 0.502 0.13997309 0.07
3 0.18707941 0.308 0.13997309 0.07
3 0.18707941 0.116 0.13997309 0.07
3 0.52489907 0.88375 0.03230148 0.0735
3 0.52489907 0.69025 0.03230148 0.0735
3 0.52489907 0.49675 0.03230148 0.0735
3 0.52489907 0.30425 0.03230148 0.0735
3 0.52489907 0.11175 0.03230148 0.0735
0 0.3358008 0.886 0.0794078 0.03
0 0.3384926 0.6925 0.0794078 0.03
0 0.34118438 0.5005 0.0794078 0.03
0 0.34253028 0.3085 0.0794078 0.03
0 0.34791386 0.115 0.0794078 0.03
1 0.57537013 0.87625 0.06594886 0.0585
1 0.5794078 0.68275 0.06594886 0.0585
1 0.576716 0.49025 0.06594886 0.0585
1 0.576716 0.29675 0.06594886 0.0585
1 0.5794078 0.10425 0.06594886 0.0585
4 0.7321669 0.889 0.10228802 0.038
4 0.7469717 0.694 0.1076716 0.051
4 0.7375505 0.5065 0.10228802 0.041
4 0.7348587 0.31425 0.1076716 0.0415
4 0.7348587 0.11475 0.1076716 0.0375
6 0.34724092 0.7905 0.04037685 0.156
6 0.34724092 0.5965 0.04037685 0.154
6 0.34589502 0.40325 0.04037685 0.1545
6 0.34724092 0.21225 0.04037685 0.1545
