2 0.7251634 0.15325 0.19019608 0.1145
2 0.7251634 0.329 0.19019608 0.114
2 0.72287583 0.505 0.19215687 0.114
2 0.7277778 0.67925 0.19019608 0.1145
2 0.724183 0.85425 0.18954249 0.1145
2 0.34738562 0.15425 0.1261438 0.1205
2 0.3480392 0.33025 0.1261438 0.1205
2 0.34771243 0.50475 0.1267974 0.1205
2 0.3486928 0.68 0.1261438 0.12
2 0.3480392 0.8545 0.1261438 0.12
3 0.34836602 0.154 0.09673203 0.101
3 0.3506536 0.329 0.09738562 0.101
3 0.3506536 0.503 0.09738562 0.101
3 0.3529412 0.679 0.09673203 0.101
3 0.351634 0.855 0.09673203 0.101
0 0.55457515 0.1575 0.113071896 0.201
0 0.55326796 0.32775 0.113071896 0.2015
0 0.55457515 0.501 0.113071896 0.201
0 0.55588233 0.67125 0.113071896 0.2015
0 0.55326796 0.8415 0.113071896 0.201
1 0.45392156 0.15375 0.050326798 0.0675
1 0.45522875 0.3295 0.050326798 0.067
1 0.45196077 0.5045 0.04640523 0.067
1 0.45392156 0.6785 0.050326798 0.067
1 0.4503268 0.8555 0.049673203 0.067
4 0.7424837 0.15275 0.049673203 0.0395
4 0.74346405 0.327 0.051633988 0.04
4 0.7411765 0.50325 0.052287582 0.0395
4 0.74215686 0.6795 0.051633988 0.04
4 0.74346405 0.854 0.051633988 0.04
6 0.45588234 0.2415 0.020261439 0.095
6 0.45588234 0.4155 0.020261439 0.095
6 0.45457515 0.5915 0.020261439 0.095
6 0.45228758 0.7655 0.019607844 0.095
