2 0.8778169 0.17216557 0.12746479 0.10917816
2 0.8778169 0.43431315 0.12746479 0.10917816
2 0.8792254 0.6964607 0.12746479 0.10917816
2 0.115492955 0.30263948 0.12816902 0.10617876
2 0.11478873 0.5644871 0.12676056 0.10917816
2 0.115492955 0.82693464 0.12816902 0.10737853
3 0.77288735 0.1709658 0.042957745 0.18236353
3 0.77288735 0.4319136 0.042957745 0.18236353
3 0.77288735 0.6934613 0.042957745 0.18236353
3 0.22147888 0.3035393 0.042957745 0.18236353
3 0.22147888 0.5632873 0.042957745 0.18236353
3 0.22288732 0.8254349 0.042957745 0.18236353
0 0.4753521 0.17216557 0.2028169 0.087582484
0 0.4753521 0.43521297 0.2028169 0.08818236
0 0.47676057 0.69676065 0.2028169 0.0869826
0 0.518662 0.30383924 0.20211267 0.0869826
0 0.518662 0.5644871 0.20211267 0.087582484
0 0.52112675 0.8278344 0.2028169 0.087582484
1 0.49859154 0.17276545 0.03661972 0.063587286
1 0.49859154 0.30323935 0.03661972 0.0629874
1 0.4964789 0.43431315 0.032394364 0.063587286
1 0.4964789 0.5632873 0.032394364 0.063587286
1 0.4964789 0.69526094 0.032394364 0.063587286
1 0.49612677 0.8278344 0.033098593 0.063587286
4 0.87957746 0.17336532 0.047887325 0.03839232
4 0.8830986 0.43461308 0.03802817 0.03539292
4 0.87957746 0.69826037 0.03802817 0.03479304
4 0.115492955 0.30263948 0.03802817 0.03539292
4 0.124647886 0.5674865 0.03802817 0.03479304
4 0.115492955 0.8254349 0.03802817 0.03479304
6 0.49718308 0.49970007 0.32112676 0.8026395
