2 0.31036586 0.16725 0.46829268 0.1845
2 0.31036586 0.3895 0.46829268 0.184
2 0.31036586 0.61075 0.46829268 0.1845
2 0.31036586 0.834 0.46829268 0.184
2 0.68140244 0.16725 0.14695121 0.1035
2 0.68140244 0.389 0.14695121 0.105
2 0.68140244 0.611 0.14695121 0.103
2 0.68140244 0.8315 0.14695121 0.102
3 0.32439023 0.16825 0.26341462 0.1615
3 0.32439023 0.38875 0.26341462 0.1615
3 0.32439023 0.60925 0.26341462 0.1615
3 0.32439023 0.83425 0.26341462 0.1615
3 0.8972561 0.168 0.06402439 0.14
3 0.89786583 0.39075 0.06402439 0.1255
3 0.89878047 0.60625 0.06341463 0.1295
3 0.90030485 0.835 0.06402439 0.113
0 0.577439 0.833 0.053658538 0.044
0 0.577439 0.61 0.053658538 0.044
0 0.577439 0.38925 0.053658538 0.0445
0 0.577439 0.16675 0.053658538 0.0445
1 0.81158537 0.16925 0.045121953 0.1065
1 0.81158537 0.391 0.045121953 0.111
1 0.81158537 0.6105 0.045121953 0.102
1 0.8121951 0.83125 0.043902438 0.1025
4 0.13292684 0.1685 0.048780486 0.06
4 0.67987806 0.168 0.047560975 0.064
4 0.67987806 0.38775 0.069512196 0.0575
4 0.67987806 0.61 0.069512196 0.058
4 0.68140244 0.83375 0.07012195 0.0475
4 0.13506098 0.608 0.07012195 0.058
4 0.13506098 0.832 0.07012195 0.051
4 0.13506098 0.389 0.07012195 0.06
6 0.5789634 0.1095 0.016463414 0.085
6 0.57804877 0.28 0.014634146 0.189
6 0.5789634 0.5 0.015243903 0.189
6 0.57804877 0.72225 0.014634146 0.1885
6 0.57713413 0.8825 0.015243903 0.065
