2 0.85766184 0.2516258 0.22391017 0.4022011
2 0.66941875 0.7506253 0.2318362 0.40570286
2 0.4851387 0.2516258 0.22391017 0.4022011
2 0.30151916 0.7491246 0.2318362 0.40570286
2 0.11393659 0.25012505 0.22391017 0.4022011
3 0.8712021 0.29189596 0.17833553 0.21960981
3 0.49702775 0.29689845 0.17767504 0.21960981
3 0.68428004 0.7016008 0.17833553 0.21960981
3 0.31010568 0.7066033 0.17767504 0.21960981
3 0.12516512 0.30265132 0.17767504 0.22011006
0 0.12648612 0.5 0.094451785 0.071535766
0 0.31109643 0.5 0.09379128 0.071535766
0 0.4966975 0.4989995 0.09379128 0.071535766
0 0.6849406 0.5010005 0.09379128 0.071535766
0 0.8698811 0.5 0.09379128 0.071535766
1 0.13011889 0.6975988 0.04359313 0.08254127
1 0.49768823 0.6980991 0.044253632 0.08254127
1 0.31505945 0.3194097 0.04359313 0.08254127
1 0.6826288 0.31990996 0.044253632 0.08254127
1 0.8712021 0.6980991 0.04359313 0.08254127
4 0.8279392 0.10755378 0.09180977 0.04502251
4 0.64200795 0.88569283 0.09379128 0.06853427
4 0.4547556 0.11330666 0.08520476 0.04252126
4 0.27278733 0.87843925 0.08454426 0.04202101
4 0.08190224 0.1108054 0.08058124 0.060530264
6 0.21664464 0.50075036 0.09247028 0.023011506
6 0.40455747 0.4989995 0.09180977 0.023511756
6 0.59280056 0.49949974 0.09709379 0.022511255
6 0.7790621 0.5010005 0.09180977 0.023511756
6 0.9372523 0.5010005 0.04623514 0.023511756
6 0.061426684 0.5 0.04623514 0.023511756
