2 0.61650485 0.77475 0.2647249 0.2425
2 0.6184466 0.501 0.2647249 0.243
2 0.61747575 0.2265 0.26407766 0.243
2 0.35501617 0.3635 0.2647249 0.243
2 0.35631067 0.637 0.2647249 0.243
3 0.3067961 0.6385 0.04789644 0.08
3 0.3067961 0.3645 0.04789644 0.112
3 0.58899677 0.22425 0.06731392 0.1285
3 0.589644 0.498 0.06731392 0.128
3 0.59158576 0.77325 0.06731392 0.1285
3 0.89546925 0.2215 0.11326861 0.145
3 0.89546925 0.4995 0.11326861 0.145
3 0.8961165 0.781 0.11326861 0.141
3 0.07184466 0.63675 0.11262136 0.1415
3 0.07184466 0.35675 0.11262136 0.1415
0 0.48770225 0.226 0.105501615 0.113
0 0.48770225 0.36275 0.105501615 0.1135
0 0.487055 0.49975 0.105501615 0.1135
0 0.487055 0.63675 0.105501615 0.1135
0 0.48834953 0.77425 0.105501615 0.1135
1 0.48770225 0.774 0.035598706 0.066
1 0.4854369 0.6375 0.034951456 0.066
1 0.48770225 0.4995 0.035598706 0.066
1 0.4854369 0.363 0.034951456 0.066
1 0.4854369 0.2275 0.034951456 0.071
4 0.6747573 0.774 0.08349515 0.066
4 0.6734628 0.4995 0.07831715 0.066
4 0.6711974 0.225 0.06731392 0.066
4 0.38899675 0.64775 0.07249191 0.0455
4 0.39158577 0.36075 0.08284789 0.0495
