2 0.27955666 0.243 0.10591133 0.277
2 0.80972904 0.231 0.10591133 0.251
2 0.5486453 0.307 0.10591133 0.403
2 0.06311576 0.7755 0.10899015 0.242
2 0.36699507 0.70675 0.10591133 0.3785
2 0.6490148 0.7715 0.10591133 0.249
3 0.39070198 0.2045 0.10529557 0.207
3 0.6721059 0.2045 0.10529557 0.207
3 0.9239532 0.2035 0.10529557 0.207
3 0.7700123 0.7995 0.10529557 0.207
3 0.48429802 0.7975 0.10529557 0.207
3 0.18134236 0.7975 0.10529557 0.207
0 0.117610835 0.58775 0.20197044 0.1895
0 0.21736453 0.447 0.19950739 0.188
0 0.41687194 0.4475 0.19950739 0.188
0 0.51662564 0.5865 0.19950739 0.188
0 0.7164409 0.5865 0.20012315 0.188
0 0.81650245 0.446 0.19950739 0.188
4 0.114224136 0.58075 0.13238916 0.1115
4 0.20628078 0.446 0.1317734 0.112
4 0.4091749 0.4435 0.13238916 0.112
4 0.5064655 0.578 0.13238916 0.112
4 0.7050493 0.5875 0.1317734 0.112
4 0.80326355 0.444 0.13238916 0.112
5 0.2801724 0.1485 0.06896552 0.047
5 0.54679805 0.1485 0.06896552 0.047
5 0.8103448 0.1485 0.06896552 0.047
5 0.0591133 0.85125 0.06896552 0.0475
5 0.36453202 0.85125 0.06896552 0.0475
5 0.64963055 0.85125 0.06896552 0.0475
