2 0.7015444 0.221 0.34826255 0.189
2 0.7015444 0.5795 0.34826255 0.189
2 0.30501932 0.41 0.34903476 0.189
2 0.30501932 0.7675 0.34903476 0.189
3 0.7146718 0.233 0.08880309 0.118
3 0.7088803 0.594 0.08957529 0.118
3 0.22972973 0.4135 0.08880309 0.118
3 0.22972973 0.7725 0.08880309 0.118
3 0.796139 0.37325 0.04942085 0.0765
3 0.796139 0.732 0.04942085 0.077
3 0.192278 0.25125 0.04942085 0.0765
3 0.196139 0.61375 0.04942085 0.0765
0 0.5054054 0.21 0.011583012 0.152
0 0.5054054 0.77725 0.011583012 0.1525
0 0.5054054 0.40325 0.011583012 0.1205
0 0.5054054 0.581 0.011583012 0.108
1 0.8 0.24825 0.05096525 0.0875
1 0.7953668 0.60875 0.05096525 0.0875
1 0.3127413 0.43075 0.05096525 0.0875
1 0.3127413 0.78475 0.05096525 0.0895
4 0.24594595 0.2515 0.056370657 0.049
4 0.24749035 0.61425 0.053281855 0.0345
4 0.8490347 0.37825 0.053281855 0.0345
4 0.8490347 0.7345 0.053281855 0.035
6 0.5019305 0.11375 0.046332046 0.0305
6 0.50308883 0.31475 0.05173745 0.0275
6 0.5 0.50025 0.05173745 0.0275
6 0.5 0.67475 0.05173745 0.0275
6 0.5019305 0.87175 0.046332046 0.0305
