2 0.7805 0.27081966 0.24 0.43803278
2 0.501 0.27213115 0.24 0.44065574
2 0.2215 0.2718033 0.24 0.43868852
2 0.36225 0.7334426 0.2385 0.45311475
2 0.64275 0.7337705 0.2385 0.452459
3 0.5 0.3019672 0.199 0.09770492
3 0.5015 0.37606558 0.107 0.020327868
3 0.7815 0.30491802 0.208 0.091803275
3 0.77825 0.37606558 0.1065 0.020327868
3 0.21775 0.30327868 0.1985 0.09770492
3 0.21825 0.3757377 0.1065 0.020983607
3 0.36325 0.66885245 0.1985 0.09704918
3 0.3655 0.7413115 0.107 0.020327868
3 0.64325 0.66065574 0.1985 0.09770492
3 0.6435 0.732459 0.107 0.020983607
0 0.16575 0.49868852 0.0285 0.038688526
0 0.32725 0.49967214 0.0285 0.038032785
0 0.449 0.49868852 0.029 0.038688526
0 0.57175 0.49868852 0.0285 0.038688526
0 0.69425 0.49934426 0.0285 0.038688526
0 0.85375 0.49836066 0.0285 0.038032785
4 0.77225 0.13606557 0.0945 0.13311476
4 0.63725 0.8681967 0.0895 0.115409836
4 0.49525 0.12885246 0.1025 0.13967213
4 0.36325 0.8737705 0.0975 0.13442624
4 0.216 0.13606557 0.111 0.10819672
6 0.246 0.4642623 0.137 0.0904918
6 0.50925 0.49836066 0.0965 0.019672131
6 0.77325 0.49836066 0.1335 0.019672131
6 0.63275 0.49868852 0.0955 0.020327868
6 0.38775 0.49836066 0.0945 0.019672131
