2 0.67075 0.305622 0.0685 0.16028708
2 0.67075 0.12021531 0.0685 0.16028708
2 0.67075 0.4910287 0.0685 0.16028708
2 0.671 0.6764354 0.068 0.16028708
2 0.67075 0.8618421 0.0685 0.16028708
2 0.3465 0.11991627 0.036 0.043660287
2 0.3465 0.30861244 0.036 0.043062203
2 0.348 0.4925239 0.036 0.043660287
2 0.348 0.6764354 0.036 0.043062203
2 0.348 0.8618421 0.036 0.043062203
3 0.76725 0.12111244 0.1655 0.125
3 0.76725 0.68331337 0.1655 0.125
3 0.76725 0.30861244 0.1655 0.12440191
3 0.76725 0.49611244 0.1655 0.125
3 0.76725 0.87081337 0.1655 0.12440191
0 0.5 0.12141148 0.263 0.17583732
0 0.50025 0.3083134 0.2635 0.17523924
0 0.50025 0.49222487 0.2635 0.17583732
0 0.50025 0.67673445 0.2635 0.17523924
0 0.50025 0.8630383 0.2635 0.17583732
1 0.24175 0.12200957 0.1445 0.06818182
1 0.24175 0.30861244 0.1445 0.06818182
1 0.24175 0.4910287 0.1445 0.06818182
1 0.24175 0.680622 0.1445 0.06818182
1 0.24175 0.8618421 0.1445 0.06818182
