2 0.16425 0.33066553 0.1295 0.2737995
2 0.3885 0.32982308 0.129 0.2737995
2 0.612 0.33066553 0.129 0.2737995
2 0.83625 0.32982308 0.1295 0.2737995
3 0.83925 0.67438924 0.1945 0.29401854
3 0.613 0.646588 0.195 0.23841618
3 0.3915 0.67438924 0.195 0.29401854
3 0.1655 0.64700925 0.195 0.23925863
0 0.16425 0.4549284 0.2145 0.0758214
0 0.38925 0.4536647 0.2145 0.07666386
0 0.61325 0.4536647 0.2145 0.07666386
0 0.839 0.4536647 0.215 0.07666386
4 0.83675 0.29949453 0.0705 0.096882895
4 0.6135 0.29865205 0.083 0.09856782
4 0.3915 0.30117944 0.078 0.12384162
4 0.16475 0.2990733 0.0705 0.13647851
