2 0.87072587 0.6045358 0.19496101 0.1856839
2 0.87132573 0.19596031 0.10977805 0.25584692
2 0.6859628 0.57051736 0.01139772 0.2792346
2 0.31463706 0.5694543 0.01139772 0.27852586
2 0.12807438 0.46846208 0.01139772 0.07654146
2 0.50029993 0.46846208 0.0119976 0.07654146
2 0.87162566 0.46775338 0.0119976 0.07654146
2 0.6844631 0.21296953 0.10917816 0.22182849
2 0.5 0.23068745 0.10977805 0.18639264
2 0.31313738 0.18816443 0.10917816 0.2629341
2 0.1289742 0.21615875 0.10917816 0.2182849
2 0.6859628 0.8107725 0.19496101 0.1856839
2 0.5011998 0.6045358 0.19496101 0.1856839
2 0.12807438 0.6045358 0.19496101 0.1856839
2 0.31463706 0.8107725 0.19496101 0.1856839
3 0.87072587 0.59319633 0.16256748 0.13182141
3 0.6844631 0.8029766 0.1619676 0.13749114
3 0.5 0.59638554 0.16256748 0.13819985
3 0.3134373 0.8029766 0.16256748 0.13749114
3 0.12927414 0.59319633 0.16256748 0.13182141
0 0.87162566 0.37278527 0.064787045 0.100637846
0 0.68566287 0.37278527 0.064787045 0.100637846
0 0.5 0.37207654 0.06538692 0.10205528
0 0.31313738 0.3717222 0.064787045 0.102763996
0 0.12837432 0.37101346 0.064787045 0.102763996
4 0.87072587 0.8260099 0.114577085 0.095676824
4 0.5 0.8260099 0.10977805 0.13253012
4 0.12837432 0.8313253 0.11637673 0.09638554
5 0.8710258 0.12437987 0.063587286 0.055988662
5 0.6859628 0.1608788 0.06418716 0.056697376
5 0.5 0.19454288 0.06418716 0.055988662
5 0.31373724 0.111977324 0.063587286 0.056697376
5 0.1289742 0.16477676 0.063587286 0.055988662
6 0.7792441 0.38554215 0.12717457 0.026931254
6 0.59238154 0.38554215 0.12657468 0.026931254
6 0.40581885 0.38554215 0.12537493 0.026931254
6 0.22045591 0.38554215 0.12657468 0.026931254
