2 0.3845 0.6810254 0.614 0.21617337
2 0.3805 0.3372093 0.607 0.21670191
2 0.308 0.15961945 0.463 0.21670191
2 0.29725 0.5145349 0.4415 0.21617337
2 0.28875 0.8602008 0.4235 0.21300212
3 0.63025 0.86918604 0.2405 0.109408036
3 0.8155 0.68498945 0.241 0.10993657
3 0.65575 0.50766385 0.2405 0.109408036
3 0.80925 0.33298096 0.2405 0.10993657
3 0.68025 0.1493129 0.2405 0.109408036
0 0.06975 0.3409091 0.0165 0.17653278
0 0.06975 0.5132135 0.0165 0.17336152
0 0.06975 0.68710357 0.0165 0.17758985
0 0.06975 0.8602008 0.0155 0.17283298
0 0.06975 0.16596195 0.0155 0.17653278
1 0.157 0.86812896 0.09 0.03435518
1 0.3405 0.68789643 0.091 0.03435518
1 0.175 0.509778 0.09 0.03435518
1 0.32425 0.3353594 0.1025 0.03435518
1 0.198 0.15539113 0.092 0.033826638
4 0.3505 0.862315 0.086 0.08826639
4 0.5405 0.6794397 0.076 0.08826639
4 0.367 0.512685 0.081 0.08562368
4 0.53675 0.33509514 0.0785 0.07610994
4 0.39025 0.15539113 0.0765 0.093023255
