2 0.84 0.26914498 0.187 0.35687733
2 0.502 0.26914498 0.187 0.35687733
2 0.16425 0.26914498 0.1865 0.35687733
2 0.335 0.70929366 0.185 0.35390335
2 0.673 0.7085502 0.185 0.35390335
3 0.82325 0.27546468 0.1205 0.16431227
3 0.6585 0.7033457 0.12 0.16356878
3 0.485 0.27546468 0.12 0.16431227
3 0.321 0.7033457 0.12 0.16356878
3 0.147 0.27546468 0.12 0.16431227
3 0.84725 0.124535315 0.1355 0.028996283
3 0.68275 0.8434944 0.1355 0.028996283
3 0.50975 0.124535315 0.1355 0.028996283
3 0.34525 0.8434944 0.1355 0.028996283
3 0.17075 0.12527882 0.1355 0.028996283
0 0.8145 0.4914498 0.028 0.04163569
0 0.643 0.4914498 0.028 0.04163569
0 0.4715 0.48921934 0.028 0.04163569
0 0.30025 0.48921934 0.0285 0.04163569
0 0.129 0.48475838 0.028 0.04163569
6 0.72925 0.4866171 0.1385 0.020074349
6 0.55775 0.4866171 0.1385 0.020074349
6 0.38625 0.4866171 0.1385 0.020074349
6 0.21525 0.4866171 0.1385 0.020074349
