2 0.59225 0.72232145 0.1705 0.04702381
2 0.593 0.42410713 0.171 0.04702381
2 0.289 0.5904762 0.009 0.065476194
2 0.28825 0.8952381 0.0085 0.065476194
2 0.59275 0.124107145 0.1705 0.04702381
2 0.39525 0.27232143 0.1705 0.04702381
2 0.39425 0.56934524 0.1705 0.04702381
2 0.396 0.87053573 0.17 0.048214287
2 0.698 0.74285716 0.009 0.065476194
2 0.698 0.44375 0.009 0.06488095
2 0.698 0.13809524 0.009 0.065476194
2 0.289 0.29345238 0.009 0.065476194
3 0.2235 0.9190476 0.111 0.06428572
3 0.76525 0.7675595 0.1105 0.06488095
3 0.22375 0.62023807 0.1105 0.06428572
3 0.76525 0.46607143 0.1105 0.06428572
3 0.223 0.31904763 0.11 0.06428572
3 0.76525 0.16845238 0.1105 0.06428572
0 0.47525 0.72083336 0.0735 0.086904764
0 0.476 0.42261904 0.073 0.086904764
0 0.47575 0.122023806 0.0735 0.086904764
0 0.51225 0.2720238 0.0735 0.086904764
0 0.51175 0.56994045 0.0735 0.0875
0 0.5125 0.87023807 0.073 0.086904764
1 0.25575 0.87291664 0.0445 0.020833334
1 0.7315 0.72113097 0.043 0.019642858
1 0.25525 0.5732143 0.0435 0.022619048
1 0.73175 0.4220238 0.0435 0.021428572
1 0.25375 0.27261904 0.0485 0.021428572
1 0.7315 0.12113095 0.043 0.02202381
5 0.51225 0.86845237 0.0305 0.03452381
5 0.47525 0.72083336 0.0305 0.03452381
5 0.51025 0.5702381 0.0305 0.03452381
5 0.47325 0.42380953 0.0305 0.03452381
5 0.51125 0.27113095 0.0325 0.036309525
5 0.47625 0.123809524 0.0325 0.036904763
6 0.4935 0.49702382 0.202 0.9238095
