2 0.57425 0.543742 0.2085 0.12068965
2 0.71275 0.36653894 0.2085 0.12132823
2 0.30025 0.8952746 0.2085 0.12132823
2 0.437 0.7180715 0.211 0.12068965
2 0.84925 0.18869732 0.2095 0.12068965
2 0.47225 0.29214558 0.0945 0.15006386
2 0.60775 0.115261815 0.0945 0.15006386
2 0.336 0.46902937 0.094 0.15006386
2 0.20125 0.6478289 0.0945 0.15006386
2 0.0655 0.8240741 0.094 0.15006386
3 0.877 0.19412516 0.134 0.093231164
3 0.739 0.3591954 0.134 0.07215837
3 0.60225 0.54501915 0.1345 0.091315456
3 0.46525 0.7206258 0.1345 0.091315456
3 0.32775 0.8962324 0.1345 0.08876117
0 0.691 0.19029374 0.112 0.14303958
0 0.2795 0.71647507 0.112 0.14303958
0 0.141 0.8930396 0.112 0.14240102
0 0.5545 0.3633461 0.112 0.14303958
0 0.417 0.54022986 0.112 0.14303958
1 0.60775 0.06130268 0.0575 0.026819924
1 0.4725 0.23882504 0.057 0.026819924
1 0.33675 0.41634738 0.0575 0.026819924
1 0.201 0.59386975 0.057 0.026819924
1 0.0655 0.77203065 0.057 0.026819924
4 0.69075 0.19029374 0.0675 0.085568324
4 0.41675 0.5367178 0.0495 0.07471264
4 0.285 0.7132822 0.059 0.07662835
4 0.1405 0.89016604 0.062 0.07662835
4 0.555 0.35696042 0.062 0.07662835
5 0.774 0.18837804 0.02 0.039591316
5 0.637 0.36621967 0.02 0.03512133
5 0.499 0.54246485 0.02 0.037675608
5 0.362 0.7199872 0.02 0.033844188
5 0.2245 0.8955939 0.02 0.033844188
6 0.77275 0.08812261 0.1015 0.13282248
6 0.624 0.28001276 0.08 0.102809705
6 0.4875 0.45530012 0.087 0.11111111
6 0.3495 0.63154536 0.091 0.11621967
6 0.212 0.8084291 0.097 0.1238825
6 0.06225 0.958493 0.1245 0.08301405
