2 0.85422915 0.6814007 0.101979606 0.3272101
2 0.5 0.6814007 0.10257948 0.3272101
2 0.14427115 0.6814007 0.10257948 0.3272101
2 0.32213557 0.2967853 0.101979606 0.3272101
2 0.6763647 0.2967853 0.10257948 0.3272101
3 0.14577085 0.26176807 0.19556089 0.26176807
3 0.4985003 0.26176807 0.19556089 0.26176807
3 0.85422915 0.26176807 0.19556089 0.26176807
3 0.32213557 0.71354765 0.19556089 0.26291618
3 0.67786443 0.71354765 0.19556089 0.26291618
0 0.14487103 0.4879449 0.029394122 0.05510907
0 0.3224355 0.4879449 0.029394122 0.05510907
0 0.4994001 0.48851895 0.029394122 0.056257177
0 0.6769646 0.48851895 0.029394122 0.056257177
0 0.8545291 0.4879449 0.029394122 0.05510907
4 0.14577085 0.75028706 0.068386324 0.11595867
4 0.49970007 0.7451205 0.068386324 0.12629162
4 0.85422915 0.75028706 0.068386324 0.13662457
4 0.6772646 0.22732492 0.051589683 0.1423651
4 0.32213557 0.22732492 0.07318536 0.1423651
6 0.23335333 0.48737085 0.15236953 0.017221585
6 0.4106179 0.48737085 0.1529694 0.017221585
6 0.5881824 0.48737085 0.1529694 0.017221585
6 0.7654469 0.48737085 0.15236953 0.017221585
6 0.9142172 0.4879449 0.0959808 0.027554534
6 0.08428314 0.4879449 0.096580684 0.032146957
