2 0.49275 0.2168294 0.2005 0.3854107
2 0.79925 0.2168294 0.2005 0.3854107
2 0.18275 0.2168294 0.2005 0.3854107
2 0.65075 0.7791499 0.2005 0.3854107
2 0.34375 0.7791499 0.2005 0.3854107
3 0.18325 0.26593912 0.1575 0.1412981
3 0.49275 0.26593912 0.1575 0.1412981
3 0.799 0.26593912 0.158 0.1412981
3 0.3445 0.7403791 0.158 0.1412981
3 0.65225 0.73923033 0.1575 0.1412981
0 0.19125 0.49483055 0.1145 0.13153361
0 0.34375 0.49655372 0.1145 0.13153361
0 0.49725 0.49425617 0.1145 0.13153361
0 0.64925 0.4959793 0.1145 0.13153361
0 0.80275 0.49425617 0.1145 0.13153361
5 0.34175 0.8877082 0.0765 0.083285466
5 0.65225 0.8877082 0.0765 0.083285466
5 0.18275 0.108845495 0.0765 0.083285466
5 0.49325 0.108845495 0.0765 0.083285466
5 0.79975 0.108845495 0.0765 0.083285466
6 0.26775 0.49483055 0.0425 0.018954623
6 0.41975 0.49540493 0.0425 0.018954623
6 0.57475 0.49540493 0.0425 0.018954623
6 0.72675 0.4959793 0.0425 0.018954623
