2 0.6406353 0.19725 0.5982793 0.2515
2 0.64195895 0.42075 0.5982793 0.2515
2 0.64195895 0.64375 0.5982793 0.2515
2 0.64195895 0.87025 0.5982793 0.2515
3 0.5681668 0.19075 0.2627399 0.1235
3 0.56949043 0.414 0.2627399 0.124
3 0.56949043 0.63725 0.2627399 0.1235
3 0.56949043 0.86375 0.2627399 0.1235
3 0.09033752 0.86275 0.11449371 0.1325
3 0.08967571 0.19475 0.11449371 0.1325
3 0.090999335 0.41375 0.11449371 0.1325
3 0.0890139 0.63875 0.11449371 0.1325
0 0.27134347 0.19 0.080741234 0.062
0 0.27134347 0.41425 0.080741234 0.0605
0 0.27134347 0.63825 0.080741234 0.0605
0 0.27134347 0.8625 0.080741234 0.06
1 0.18894772 0.194 0.033752482 0.077
1 0.18927862 0.4135 0.034414295 0.067
1 0.18927862 0.6365 0.034414295 0.069
1 0.18927862 0.8615 0.034414295 0.072
4 0.8352085 0.12975 0.075446725 0.0575
4 0.82892126 0.35975 0.07743216 0.0645
4 0.82528126 0.5805 0.058239575 0.064
4 0.82892126 0.8045 0.08537392 0.066
5 0.8170086 0.23325 0.08934481 0.0555
5 0.81833225 0.45125 0.08934481 0.0555
5 0.81833225 0.6765 0.08934481 0.057
5 0.8170086 0.901 0.08934481 0.06
6 0.27101257 0.30275 0.020516215 0.1675
6 0.2726671 0.52575 0.0198544 0.1675
6 0.2726671 0.751 0.0198544 0.165
6 0.27101257 0.10875 0.020516215 0.1035
6 0.27101257 0.91725 0.020516215 0.0525
