2 0.37532896 0.6325 0.21513158 0.551
2 0.6003289 0.633 0.21513158 0.551
2 0.82730263 0.6325 0.21513158 0.551
2 0.14835526 0.632 0.21513158 0.552
3 0.16019736 0.5865 0.15197368 0.242
3 0.10921053 0.78375 0.047368422 0.0655
3 0.38717106 0.5865 0.15197368 0.242
3 0.3361842 0.78375 0.047368422 0.0655
3 0.5957237 0.5865 0.121710524 0.242
3 0.83914477 0.5865 0.15197368 0.242
3 0.5605263 0.78375 0.047368422 0.0655
3 0.7875 0.7845 0.047368422 0.065
0 0.3848684 0.30725 0.06315789 0.0485
0 0.61118424 0.3065 0.06315789 0.048
0 0.8381579 0.3065 0.06315789 0.048
0 0.15888157 0.3065 0.06381579 0.048
1 0.15427631 0.17725 0.0375 0.0785
1 0.38125 0.17725 0.0375 0.0785
1 0.8332237 0.17725 0.0375 0.0785
1 0.6052632 0.17725 0.036842104 0.0785
4 0.122039475 0.85575 0.0756579 0.0595
4 0.34671053 0.865 0.08026316 0.036
4 0.56282896 0.862 0.0875 0.062
4 0.7924342 0.8595 0.06776316 0.059
6 0.5 0.30675 0.16973685 0.0205
6 0.2713816 0.30675 0.16907895 0.0205
6 0.7243421 0.30675 0.16973685 0.0205
6 0.9131579 0.30675 0.09210526 0.0205
6 0.097039476 0.30675 0.073026314 0.0205
