2 0.14125 0.6993007 0.1185 0.39300698
2 0.502 0.7034965 0.118 0.39300698
2 0.865 0.7034965 0.118 0.39300698
2 0.68375 0.27902097 0.1185 0.39300698
2 0.31975 0.27902097 0.1185 0.39300698
3 0.3195 0.2769231 0.097 0.16363636
3 0.14325 0.6965035 0.0975 0.16363636
3 0.503 0.6958042 0.097 0.16363636
3 0.86725 0.6951049 0.0975 0.16363636
3 0.682 0.27972028 0.097 0.16363636
0 0.68325 0.49265733 0.1205 0.16853146
0 0.50125 0.48916084 0.1205 0.16853146
0 0.32225 0.49160838 0.1205 0.16783217
0 0.13925 0.48706293 0.1205 0.16853146
0 0.86325 0.49160838 0.1205 0.16783217
1 0.14175 0.19125874 0.0975 0.04265734
1 0.509 0.19125874 0.104 0.04265734
1 0.866 0.19160838 0.097 0.043356642
1 0.3195 0.7807692 0.097 0.04265734
1 0.685 0.78006995 0.106 0.04265734
4 0.13925 0.48846152 0.0505 0.08741259
4 0.50125 0.48776224 0.0635 0.08741259
4 0.8635 0.4888112 0.064 0.08951049
4 0.323 0.48986015 0.056 0.08741259
4 0.68125 0.48986015 0.0605 0.066433564
6 0.05925 0.49055943 0.0425 0.028671328
6 0.23075 0.49055943 0.0625 0.028671328
6 0.41025 0.48846152 0.0655 0.028671328
6 0.59375 0.48846152 0.0645 0.028671328
6 0.77325 0.48916084 0.0645 0.028671328
6 0.94825 0.48916084 0.0485 0.028671328
