2 0.7936596 0.71425 0.1557286 0.3665
2 0.63626254 0.30925 0.1557286 0.3665
2 0.4749722 0.705 0.1557286 0.348
2 0.32091212 0.3 0.1557286 0.348
3 0.79699665 0.7715 0.12569521 0.179
3 0.64182425 0.2365 0.12569521 0.179
3 0.48053393 0.7635 0.12124583 0.179
3 0.32258064 0.23 0.12569521 0.179
0 0.7919911 0.499 0.07675195 0.069
0 0.6368187 0.499 0.07675195 0.069
0 0.47525027 0.5 0.07619578 0.069
0 0.32091212 0.5 0.07675195 0.069
1 0.6768632 0.80625 0.050055616 0.1455
1 0.5086207 0.27325 0.05394883 0.1525
1 0.35400444 0.797 0.05394883 0.149
1 0.19632925 0.27225 0.057842046 0.1585
4 0.80088985 0.592 0.08453838 0.084
4 0.6359844 0.40375 0.07285873 0.0775
4 0.4749722 0.5995 0.0945495 0.078
4 0.32452726 0.4025 0.07730812 0.086
6 0.89265853 0.50025 0.12903225 0.0285
6 0.7141268 0.5 0.08787542 0.012
6 0.55422693 0.5 0.09065629 0.012
6 0.39738598 0.5 0.08286986 0.012
6 0.23637375 0.5 0.09899889 0.044
