3 0.82575 0.1927157 0.1785 0.25671852
3 0.61075 0.72241867 0.1785 0.25671852
3 0.39775 0.19554456 0.1785 0.25671852
3 0.18525 0.72241867 0.1785 0.25671852
0 0.82425 0.4522631 0.1495 0.21145687
0 0.6105 0.45155588 0.15 0.21145687
0 0.39725 0.4522631 0.1495 0.21145687
0 0.18375 0.45155588 0.1495 0.21145687
1 0.82425 0.45120227 0.1115 0.056577086
1 0.61075 0.45120227 0.1115 0.056577086
1 0.3985 0.4533239 0.112 0.056577086
1 0.18525 0.4533239 0.1115 0.056577086
4 0.82375 0.7072136 0.1235 0.17963225
4 0.61875 0.19589816 0.1045 0.17538896
4 0.39775 0.72241867 0.1135 0.1718529
4 0.18525 0.19342291 0.0965 0.13649222
6 0.5045 0.45155588 0.873 0.31188118
