3 0.8072843 0.82575 0.25671852 0.1785
3 0.27758133 0.61075 0.25671852 0.1785
3 0.80445546 0.39775 0.25671852 0.1785
3 0.27758133 0.18525 0.25671852 0.1785
0 0.54773694 0.82425 0.21145687 0.1495
0 0.54844415 0.6105 0.21145687 0.15
0 0.54773694 0.39725 0.21145687 0.1495
0 0.54844415 0.18375 0.21145687 0.1495
1 0.5487977 0.82425 0.056577086 0.1115
1 0.5487977 0.61075 0.056577086 0.1115
1 0.5466761 0.3985 0.056577086 0.112
1 0.5466761 0.18525 0.056577086 0.1115
4 0.29278642 0.82375 0.17963225 0.1235
4 0.8041018 0.61875 0.17538896 0.1045
4 0.27758133 0.39775 0.1718529 0.1135
4 0.8065771 0.18525 0.13649222 0.0965
6 0.54844415 0.5045 0.31188118 0.873
