2 0.385 0.9126066 0.185 0.15651645
2 0.61475 0.7978076 0.1855 0.15347138
2 0.385 0.68453103 0.185 0.15590744
2 0.61475 0.56942755 0.1855 0.15347138
2 0.3865 0.4552375 0.185 0.15651645
2 0.61475 0.3404385 0.1855 0.15347138
2 0.38575 0.2268575 0.1855 0.15651645
2 0.61475 0.11205847 0.1855 0.15347138
3 0.168 0.9293544 0.202 0.073081605
3 0.82725 0.81607795 0.2025 0.073081605
3 0.12725 0.64403164 0.1495 0.027405603
3 0.80075 0.52892816 0.1495 0.027405603
3 0.12725 0.41565165 0.1495 0.027405603
3 0.80075 0.30085263 0.1495 0.026796589
3 0.12725 0.18514007 0.1495 0.026796589
3 0.80075 0.071863584 0.1495 0.026796589
3 0.168 0.7009744 0.202 0.073081605
3 0.82725 0.58587086 0.2025 0.073081605
3 0.168 0.4725944 0.202 0.073081605
3 0.82725 0.35749087 0.2025 0.073081605
3 0.168 0.24451888 0.202 0.072472595
3 0.82725 0.12971985 0.2025 0.073081605
3 0.12725 0.8721072 0.1495 0.026796589
3 0.80075 0.75700366 0.1495 0.026796589
0 0.5 0.91199756 0.022 0.026187576
0 0.5 0.79750305 0.022 0.026187576
0 0.5 0.6842266 0.022 0.026187576
0 0.5 0.568514 0.022 0.026187576
0 0.5 0.4552375 0.022 0.026187576
0 0.5 0.340134 0.022 0.026187576
0 0.4995 0.22563946 0.022 0.026187576
0 0.4995 0.11144945 0.022 0.026796589
1 0.2385 0.8733252 0.072 0.03410475
1 0.913 0.7594397 0.072 0.03410475
1 0.2385 0.6452497 0.072 0.033495735
1 0.913 0.5301462 0.072 0.033495735
1 0.238 0.41565165 0.072 0.033495735
1 0.913 0.30207065 0.072 0.03410475
1 0.2385 0.1866626 0.072 0.033495735
1 0.9125 0.072472595 0.072 0.03410475
4 0.35875 0.9113886 0.0615 0.07856273
4 0.64275 0.80146164 0.0665 0.0682095
4 0.35625 0.6760049 0.0665 0.07917174
4 0.64375 0.57095003 0.0645 0.07612667
4 0.3565 0.4552375 0.062 0.072472595
4 0.64725 0.33922046 0.0755 0.084043846
4 0.3565 0.22594397 0.076 0.084043846
4 0.64275 0.11084044 0.0755 0.084043846
6 0.5 0.85596836 0.009 0.090743
6 0.4995 0.7414738 0.009 0.090743
6 0.4995 0.6269793 0.009 0.090743
6 0.4995 0.5124848 0.009 0.090743
6 0.4995 0.39799026 0.009 0.090743
6 0.4995 0.28319123 0.009 0.09013398
6 0.4995 0.16869672 0.009 0.09013398
