2 0.08621795 0.27438718 0.14807692 0.36168084
2 0.41698718 0.2733867 0.14807692 0.36168084
2 0.73685896 0.26938468 0.14807692 0.36168084
2 0.24967949 0.7256128 0.14807692 0.36168084
2 0.5714744 0.7256128 0.14807692 0.36168084
2 0.9009615 0.7258629 0.14807692 0.3621811
3 0.899359 0.24437219 0.06666667 0.17058529
3 0.7307692 0.7376188 0.06410257 0.1695848
3 0.2477564 0.72836417 0.09679487 0.15107554
3 0.08301282 0.27663833 0.09679487 0.15107554
3 0.5724359 0.24387194 0.06410257 0.1695848
3 0.4096154 0.7376188 0.06410257 0.1695848
3 0.24294871 0.24487244 0.06410257 0.1695848
3 0.099358976 0.7376188 0.06410257 0.1695848
3 0.8971154 0.72836417 0.09679487 0.15107554
3 0.7355769 0.27663833 0.09679487 0.15107554
3 0.56891024 0.72836417 0.09679487 0.15107554
3 0.413141 0.27663833 0.09679487 0.15107554
0 0.08589744 0.5002501 0.070512824 0.055027515
0 0.25064102 0.50050026 0.06923077 0.054527264
0 0.41089743 0.5002501 0.070512824 0.055027515
0 0.57532054 0.50050026 0.0698718 0.054527264
0 0.7326923 0.5002501 0.070512824 0.055027515
0 0.8971154 0.50050026 0.0698718 0.054527264
1 0.89839745 0.60005003 0.036538463 0.06753377
1 0.73525643 0.401951 0.035897437 0.06753377
1 0.5679487 0.60005003 0.035897437 0.06753377
1 0.4147436 0.401951 0.033333335 0.06753377
1 0.24807692 0.60005003 0.033333335 0.06753377
1 0.08397436 0.40145072 0.033333335 0.06753377
4 0.90705127 0.38794398 0.12948719 0.102551274
4 0.72467947 0.5890445 0.12884615 0.102551274
4 0.25128207 0.8516758 0.11025641 0.057528764
4 0.08429487 0.15132566 0.07371795 0.07253627
4 0.5698718 0.38819408 0.08717949 0.08204102
4 0.40897435 0.5890445 0.12948719 0.102551274
4 0.2326923 0.38844422 0.12948719 0.102551274
4 0.08846154 0.5897949 0.08589744 0.112056024
4 0.90352565 0.8521761 0.09166667 0.064532265
4 0.74038464 0.14882441 0.09871795 0.077538766
4 0.5727564 0.8514257 0.08141026 0.07903952
4 0.41923076 0.14782391 0.083333336 0.07953977
6 0.16858974 0.5 0.1 0.009504752
6 0.33044872 0.5 0.09551282 0.009504752
6 0.49326923 0.5 0.09551282 0.009504752
6 0.65384614 0.49974987 0.092307694 0.009004503
6 0.8141026 0.5002501 0.092307694 0.009004503
6 0.9599359 0.49924964 0.051923078 0.009004503
6 0.02948718 0.49924964 0.0474359 0.009004503
