2 0.14102565 0.456 0.15099715 0.594
2 0.2905983 0.456 0.15156695 0.594
2 0.43988603 0.456 0.15156695 0.594
2 0.5905983 0.456 0.15099715 0.594
2 0.7390313 0.45675 0.15156695 0.5935
2 0.8877493 0.456 0.14928775 0.594
3 0.14074074 0.41 0.06723647 0.286
3 0.2897436 0.41 0.067806266 0.286
3 0.44017094 0.41 0.067806266 0.286
3 0.5905983 0.41 0.067806266 0.286
3 0.7393162 0.41 0.067806266 0.286
3 0.8894587 0.41 0.06723647 0.286
0 0.13874644 0.795 0.1019943 0.09
0 0.2897436 0.795 0.1019943 0.09
0 0.43732193 0.795 0.1019943 0.09
0 0.58831906 0.795 0.1019943 0.09
0 0.7376068 0.795 0.1019943 0.09
0 0.888604 0.795 0.1019943 0.09
1 0.13874644 0.634 0.045014244 0.08
1 0.2897436 0.634 0.045014244 0.08
1 0.43903133 0.634 0.045014244 0.08
1 0.5888889 0.634 0.045014244 0.08
1 0.73874646 0.634 0.045014244 0.08
1 0.88803416 0.634 0.045014244 0.08
4 0.13931625 0.2035 0.038176637 0.029
4 0.2897436 0.2035 0.04045584 0.034
4 0.43874645 0.2035 0.041025642 0.034
4 0.5908832 0.2035 0.041025642 0.034
4 0.7393162 0.2035 0.04045584 0.034
4 0.8894587 0.2035 0.041025642 0.029
5 0.13874644 0.79525 0.045014244 0.0285
5 0.2897436 0.79525 0.045014244 0.0285
5 0.43903133 0.79525 0.045014244 0.0285
5 0.5877493 0.79525 0.045014244 0.0285
5 0.7393162 0.79525 0.045014244 0.0285
5 0.8874644 0.79525 0.045014244 0.0285
