2 0.6484064 0.14545818 0.29814076 0.09563825
2 0.6523904 0.4997999 0.29814076 0.096038416
2 0.65039843 0.85394156 0.29814076 0.096038416
2 0.31640106 0.67507005 0.29814076 0.096038416
2 0.31640106 0.3215286 0.29814076 0.09563825
3 0.874502 0.85214084 0.09428951 0.2004802
3 0.09561753 0.67507005 0.09428951 0.20088035
3 0.87184596 0.5 0.09428951 0.2004802
3 0.09561753 0.32232893 0.09428951 0.2004802
3 0.87250996 0.14425771 0.09428951 0.2004802
0 0.48339975 0.32232893 0.045152724 0.024409764
0 0.48339975 0.14465787 0.045152724 0.024409764
0 0.48339975 0.5 0.045152724 0.024409764
0 0.48339975 0.67567027 0.045152724 0.024409764
0 0.48339975 0.85374147 0.045152724 0.024409764
1 0.7065073 0.85334134 0.038512617 0.06282513
1 0.25796813 0.6752701 0.039176628 0.06362545
1 0.7065073 0.5 0.038512617 0.06362545
1 0.25796813 0.32292917 0.039176628 0.06322529
1 0.7068393 0.1462585 0.039176628 0.06362545
6 0.48339975 0.7643057 0.011952192 0.15686275
6 0.48339975 0.58743495 0.011952192 0.15686275
6 0.48339975 0.4105642 0.011952192 0.15686275
6 0.48339975 0.23369348 0.011952192 0.15686275
