2 0.41652894 0.21985294 0.16528925 0.43970588
2 0.081267215 0.22279412 0.1614325 0.43382353
2 0.24793388 0.22720589 0.16088155 0.43382353
2 0.661157 0.22058824 0.16418733 0.43235293
2 0.91652894 0.22058824 0.16694215 0.43823528
3 0.08071625 0.22352941 0.086501375 0.20294118
3 0.24793388 0.22720589 0.11349862 0.24264705
3 0.415427 0.22352941 0.087052345 0.20294118
3 0.6600551 0.20735294 0.09476584 0.20294118
3 0.91763085 0.22058824 0.097520664 0.1
0 0.07906336 0.78088236 0.067768596 0.18235295
0 0.91707987 0.78088236 0.069972456 0.18235295
0 0.24986225 0.78088236 0.05895317 0.15588236
0 0.4157025 0.78088236 0.05895317 0.15588236
0 0.58071625 0.78088236 0.059504133 0.15588236
0 0.74738294 0.78088236 0.05895317 0.15588236
1 0.07906336 0.9345588 0.046831954 0.060294118
1 0.2490358 0.9345588 0.04628099 0.060294118
1 0.4157025 0.9345588 0.05123967 0.060294118
1 0.58264464 0.9316176 0.046831954 0.060294118
1 0.74793386 0.9279412 0.046831954 0.05882353
1 0.91735536 0.9316176 0.04628099 0.060294118
6 0.16804408 0.78161764 0.11570248 0.07794118
6 0.33278236 0.78161764 0.11790634 0.07794118
6 0.4980716 0.78161764 0.116804406 0.07794118
6 0.6639118 0.78161764 0.119008265 0.07794118
6 0.8289256 0.78161764 0.11515152 0.07794118
