3 0.1660693 0.20906802 0.059737157 0.035264485
3 0.28614098 0.27833754 0.070489846 0.037783377
3 0.43130228 0.3438287 0.059737157 0.037783377
3 0.57108724 0.41309825 0.10274791 0.040302265
3 0.281362 0.54534006 0.0609319 0.032745592
3 0.36379927 0.6146096 0.070489846 0.035264485
3 0.4265233 0.68261963 0.04540024 0.035264485
3 0.5728793 0.7493703 0.10633214 0.037783377
3 0.7323775 0.8148615 0.119474314 0.037783377
3 0.9504182 0.47607052 0.09916368 0.0302267
0 0.21505377 0.20780857 0.19354838 0.07304786
0 0.34946236 0.2745592 0.23058543 0.07052897
0 0.5023895 0.34508815 0.23297492 0.07052897
0 0.7144564 0.41309825 0.42293906 0.07052897
0 0.3888889 0.6146096 0.15890084 0.07052897
0 0.3106332 0.5440806 0.1553166 0.07052897
0 0.4832736 0.68010074 0.19474313 0.07052897
0 0.59916365 0.74811083 0.19474313 0.07052897
0 0.7706093 0.81738037 0.22939068 0.07304786
0 0.94384706 0.47858942 0.11230586 0.07052897
1 0.13261649 0.14483628 0.026284348 0.07304786
1 0.17264038 0.14105794 0.027479092 0.065491185
1 0.51314217 0.1372796 0.017921148 0.06801008
1 0.5525687 0.1372796 0.020310633 0.06801008
1 0.5925926 0.1372796 0.021505376 0.06801008
1 0.6332139 0.1372796 0.028673835 0.06801008
1 0.6666667 0.13602015 0.021505376 0.065491185
1 0.70908004 0.13602015 0.027479092 0.065491185
1 0.7437276 0.13602015 0.02270012 0.065491185
1 0.8207885 0.13853905 0.023894863 0.065491185
1 0.781362 0.13602015 0.016726404 0.065491185
1 0.8608124 0.13602015 0.02270012 0.065491185
1 0.20848268 0.14105794 0.020310633 0.065491185
1 0.90083635 0.13602015 0.026284348 0.065491185
1 0.93608123 0.13602015 0.02270012 0.065491185
1 0.9767025 0.13602015 0.025089607 0.065491185
1 0.24193548 0.14105794 0.015531661 0.065491185
1 0.28614098 0.13853905 0.02270012 0.065491185
1 0.32377538 0.13853905 0.023894863 0.065491185
1 0.36439666 0.13853905 0.023894863 0.065491185
1 0.40083632 0.1372796 0.02270012 0.06801008
1 0.4408602 0.1372796 0.028673835 0.06801008
1 0.47729987 0.1372796 0.02270012 0.06801008
