2 0.46777344 0.12585033 0.16992188 0.034013607
2 0.46777344 0.31746033 0.16992188 0.034013607
2 0.46777344 0.5005669 0.16992188 0.03514739
2 0.46777344 0.68764174 0.16992188 0.03514739
2 0.46777344 0.8752834 0.16992188 0.034013607
3 0.29492188 0.12414966 0.140625 0.15079366
3 0.29492188 0.31462586 0.140625 0.14852607
3 0.3046875 0.5 0.140625 0.14965986
3 0.3046875 0.68877554 0.140625 0.14852607
3 0.3046875 0.8764172 0.140625 0.14965986
0 0.6542969 0.12585033 0.1953125 0.10204082
0 0.6542969 0.31746033 0.1953125 0.10204082
0 0.6542969 0.5005669 0.1953125 0.10090703
0 0.6542969 0.68764174 0.1953125 0.10090703
0 0.6542969 0.8747166 0.1953125 0.10090703
4 0.66503906 0.8758503 0.056640625 0.03287982
4 0.66503906 0.6899093 0.056640625 0.03287982
4 0.66308594 0.5017007 0.056640625 0.03287982
4 0.6669922 0.31746033 0.056640625 0.031746034
4 0.66503906 0.12641723 0.056640625 0.03287982
6 0.5253906 0.22165532 0.0234375 0.16213152
6 0.5253906 0.40873015 0.0234375 0.15306123
6 0.5253906 0.78061223 0.0234375 0.15759636
6 0.5253906 0.5935374 0.0234375 0.15759636
