2 0.39596412 0.74121094 0.015246637 0.23632812
2 0.08565022 0.74121094 0.015246637 0.23632812
2 0.39147982 0.9345703 0.13183856 0.013671875
2 0.099551566 0.9345703 0.14529148 0.013671875
2 0.73901343 0.74121094 0.016143497 0.23632812
2 0.8973094 0.30371094 0.015246637 0.23632812
2 0.55470854 0.30371094 0.015246637 0.23632812
2 0.24349776 0.30371094 0.015246637 0.23632812
2 0.23856503 0.0546875 0.14887892 0.01171875
2 0.55919284 0.05859375 0.11569507 0.01171875
2 0.90044844 0.060546875 0.16681615 0.01171875
2 0.73766816 0.9375 0.25919282 0.01171875
3 0.09910314 0.90722656 0.15515696 0.037109375
3 0.39147982 0.90722656 0.13183856 0.037109375
3 0.7358744 0.90722656 0.26278028 0.037109375
3 0.23856503 0.08496094 0.15246637 0.037109375
3 0.55784756 0.08496094 0.11838565 0.037109375
3 0.90089685 0.08496094 0.17309417 0.037109375
0 0.24932736 0.5097656 0.084304936 0.18359375
0 0.55919284 0.5097656 0.08520179 0.18359375
0 0.9013453 0.5107422 0.084304936 0.18554688
0 0.08161435 0.5341797 0.084304936 0.18554688
0 0.39192826 0.5332031 0.084304936 0.18359375
0 0.73363227 0.53222656 0.084304936 0.18554688
1 0.08116592 0.37402344 0.09058296 0.095703125
1 0.39596412 0.36816406 0.11569507 0.095703125
1 0.25067264 0.69628906 0.11569507 0.095703125
1 0.5695067 0.69628906 0.13632287 0.095703125
1 0.74573994 0.375 0.13721973 0.09765625
1 0.9067265 0.69628906 0.13632287 0.095703125
6 0.16591929 0.51953125 0.089686096 0.01171875
6 0.47578475 0.51953125 0.08878924 0.01171875
6 0.8174888 0.51953125 0.08878924 0.01171875
6 0.6470852 0.5214844 0.09417041 0.01171875
6 0.9713004 0.51953125 0.0573991 0.01171875
6 0.32107624 0.51953125 0.06098655 0.01171875
6 0.020179372 0.5205078 0.040358745 0.013671875
