2 0.74228674 0.51145834 0.38838476 0.22708334
2 0.7459165 0.8333333 0.38112524 0.22083333
2 0.74500906 0.19322917 0.3829401 0.22395833
2 0.2504537 0.67291665 0.38112524 0.22291666
2 0.2504537 0.353125 0.38112524 0.22291666
3 0.7059891 0.84375 0.18511796 0.20833333
3 0.7059891 0.52239585 0.18511796 0.203125
3 0.7059891 0.20520833 0.18511796 0.20833333
3 0.30580762 0.36145833 0.18693285 0.20833333
3 0.30580762 0.6848958 0.18693285 0.21145834
3 0.110707805 0.34583333 0.047186933 0.15416667
3 0.110707805 0.66770834 0.047186933 0.15416667
3 0.8784029 0.82395834 0.047186933 0.15416667
3 0.87931037 0.50416666 0.049001817 0.15416667
3 0.87931037 0.18645833 0.049001817 0.15416667
0 0.5117967 0.7260417 0.083484575 0.033333335
0 0.5117967 0.40520832 0.083484575 0.033333335
0 0.48094374 0.56458336 0.083484575 0.033333335
0 0.48094374 0.24479167 0.083484575 0.033333335
0 0.5117967 0.084375 0.083484575 0.033333335
1 0.75680584 0.0609375 0.11615245 0.028125
1 0.75589836 0.384375 0.11796733 0.029166667
1 0.75680584 0.7057292 0.11615245 0.028125
1 0.261343 0.2234375 0.123411976 0.028125
1 0.24228676 0.5442708 0.1215971 0.028125
6 0.49455535 0.1640625 0.016333938 0.128125
6 0.4954628 0.32447916 0.014519056 0.128125
6 0.49455535 0.4859375 0.016333938 0.128125
6 0.4954628 0.64635414 0.014519056 0.128125
6 0.49455535 0.83229166 0.012704174 0.17916666
