2 0.46 0.29489604 0.10333333 0.4763705
2 0.28583333 0.70037806 0.105 0.4820416
2 0.63416666 0.7041588 0.105 0.48582232
2 0.8075 0.29489604 0.105 0.48393196
2 0.111666664 0.2967864 0.105 0.48771265
3 0.19625 0.3705104 0.1325 0.18903592
3 0.53833336 0.37145558 0.123333335 0.19092627
3 0.37208334 0.61909264 0.1325 0.16068053
3 0.7270833 0.62854445 0.14416666 0.18336484
3 0.8925 0.3610586 0.12666667 0.17013232
3 0.38791665 0.8251418 0.0875 0.04725898
3 0.21958333 0.16918714 0.09916667 0.051039696
3 0.57208335 0.17580341 0.09916667 0.06427221
3 0.7295833 0.8251418 0.07083333 0.04725898
3 0.91333336 0.16918714 0.075 0.051039696
0 0.19666667 0.5 0.145 0.062381852
0 0.37 0.5 0.145 0.062381852
0 0.545 0.5 0.145 0.062381852
0 0.7191667 0.5 0.145 0.062381852
0 0.8933333 0.5 0.145 0.062381852
0 0.06625 0.5 0.059166666 0.062381852
1 0.19666667 0.58506614 0.111666664 0.062381852
1 0.36791667 0.4310019 0.10916667 0.056710776
1 0.5375 0.58506614 0.096666664 0.062381852
1 0.71958333 0.43383744 0.12083333 0.062381852
1 0.895 0.58506614 0.111666664 0.062381852
