2 0.6076923 0.8339844 0.0974359 0.0234375
2 0.4051282 0.6640625 0.13846155 0.0234375
2 0.22179487 0.15234375 0.24871795 0.12890625
2 0.22179487 0.4921875 0.24871795 0.12890625
2 0.22179487 0.8339844 0.24871795 0.12890625
2 0.61025643 0.4921875 0.0974359 0.0234375
2 0.61025643 0.15234375 0.0974359 0.0234375
2 0.4051282 0.3203125 0.13846155 0.0234375
3 0.20897436 0.14941406 0.16153847 0.095703125
3 0.7410256 0.15332031 0.13846155 0.13867188
3 0.74358976 0.49023438 0.14358975 0.140625
3 0.7448718 0.8339844 0.14615385 0.140625
3 0.2448718 0.32226562 0.15641026 0.140625
3 0.2448718 0.671875 0.15641026 0.140625
3 0.20897436 0.4892578 0.16153847 0.095703125
3 0.20897436 0.8330078 0.16153847 0.095703125
0 0.51794875 0.8339844 0.092307694 0.0703125
0 0.51794875 0.49023438 0.092307694 0.0703125
0 0.51794875 0.15429688 0.092307694 0.0703125
0 0.51794875 0.6640625 0.092307694 0.0703125
0 0.51794875 0.3203125 0.092307694 0.0703125
1 0.6128205 0.66503906 0.046153847 0.076171875
1 0.6128205 0.3203125 0.046153847 0.07421875
1 0.40384614 0.49121094 0.043589745 0.076171875
1 0.40384614 0.15234375 0.043589745 0.07421875
1 0.4051282 0.8339844 0.046153847 0.07421875
4 0.88461536 0.15332031 0.10769231 0.072265625
4 0.72692305 0.32226562 0.11025641 0.1015625
4 0.8833333 0.5019531 0.11025641 0.08984375
4 0.71410257 0.66796875 0.1 0.078125
4 0.8782051 0.8359375 0.1 0.08203125
5 0.5192308 0.15234375 0.03846154 0.015625
5 0.5192308 0.3203125 0.03846154 0.015625
5 0.51794875 0.4921875 0.035897437 0.015625
5 0.5192308 0.6640625 0.03846154 0.015625
5 0.5192308 0.8359375 0.03846154 0.015625
6 0.51794875 0.8984375 0.07692308 0.07421875
6 0.51794875 0.75 0.07692308 0.11328125
6 0.5141026 0.578125 0.07435898 0.1171875
6 0.51666665 0.40527344 0.07435898 0.115234375
6 0.51666665 0.23730469 0.07435898 0.111328125
6 0.51794875 0.09765625 0.071794875 0.05859375
