3 0.26498422 0.12540193 0.06940063 0.17363344
3 0.457939 0.14790997 0.20294426 0.1800643
3 0.6692955 0.11093248 0.17981073 0.073954985
3 0.85226077 0.17684887 0.07886435 0.244373
3 0.07518402 0.1414791 0.13985279 0.17363344
3 0.1719243 0.7797428 0.15878023 0.23472668
3 0.7560463 0.7282958 0.090431124 0.048231512
3 0.35804418 0.7797428 0.16088328 0.23472668
3 0.5562566 0.7942122 0.14721346 0.244373
3 0.935857 0.7363344 0.10935857 0.1800643
0 0.26235542 0.4340836 0.0977918 0.045016076
0 0.45846477 0.4340836 0.09884332 0.045016076
0 0.65509987 0.4340836 0.09884332 0.045016076
0 0.8480547 0.4340836 0.0893796 0.045016076
0 0.0657203 0.4340836 0.0977918 0.045016076
0 0.16403785 0.4340836 0.09884332 0.045016076
0 0.36119872 0.4340836 0.0977918 0.045016076
0 0.5557308 0.4340836 0.0977918 0.045016076
0 0.7539432 0.4340836 0.09884332 0.045016076
0 0.94216615 0.4340836 0.09884332 0.045016076
1 0.06519453 0.4903537 0.03995794 0.06109325
1 0.26445848 0.4903537 0.043112513 0.06109325
1 0.4595163 0.49356914 0.04626709 0.06109325
1 0.65457416 0.49356914 0.043112513 0.06109325
1 0.8459516 0.49356914 0.043112513 0.06109325
1 0.93953735 0.38424438 0.043112513 0.06109325
1 0.5573081 0.38424438 0.04206099 0.06109325
1 0.75341743 0.38424438 0.043112513 0.06109325
1 0.36119872 0.38424438 0.043112513 0.06109325
1 0.16456361 0.3874598 0.043112513 0.06109325
