3 0.8745981 0.26498422 0.17363344 0.06940063
3 0.85209006 0.457939 0.1800643 0.20294426
3 0.88906753 0.6692955 0.073954985 0.17981073
3 0.8231511 0.85226077 0.244373 0.07886435
3 0.8585209 0.07518402 0.17363344 0.13985279
3 0.22025724 0.1719243 0.23472668 0.15878023
3 0.27170417 0.7560463 0.048231512 0.090431124
3 0.22025724 0.35804418 0.23472668 0.16088328
3 0.20578778 0.5562566 0.244373 0.14721346
3 0.2636656 0.935857 0.1800643 0.10935857
0 0.5659164 0.26235542 0.045016076 0.0977918
0 0.5659164 0.45846477 0.045016076 0.09884332
0 0.5659164 0.65509987 0.045016076 0.09884332
0 0.5659164 0.8480547 0.045016076 0.0893796
0 0.5659164 0.0657203 0.045016076 0.0977918
0 0.5659164 0.16403785 0.045016076 0.09884332
0 0.5659164 0.36119872 0.045016076 0.0977918
0 0.5659164 0.5557308 0.045016076 0.0977918
0 0.5659164 0.7539432 0.045016076 0.09884332
0 0.5659164 0.94216615 0.045016076 0.09884332
1 0.5096463 0.06519453 0.06109325 0.03995794
1 0.5096463 0.26445848 0.06109325 0.043112513
1 0.50643086 0.4595163 0.06109325 0.04626709
1 0.50643086 0.65457416 0.06109325 0.043112513
1 0.50643086 0.8459516 0.06109325 0.043112513
1 0.6157556 0.93953735 0.06109325 0.043112513
1 0.6157556 0.5573081 0.06109325 0.04206099
1 0.6157556 0.75341743 0.06109325 0.043112513
1 0.6157556 0.36119872 0.06109325 0.043112513
1 0.6125402 0.16456361 0.06109325 0.043112513
