2 0.6220703 0.3870826 0.091796875 0.16080843
2 0.4169922 0.53031635 0.091796875 0.16608085
2 0.62109375 0.6599297 0.08984375 0.16695958
2 0.4140625 0.8286467 0.0859375 0.18980668
2 0.6220703 0.13752197 0.091796875 0.15026362
2 0.41503906 0.25175747 0.087890625 0.18365553
3 0.7363281 0.13620387 0.09375 0.1142355
3 0.7373047 0.3857645 0.048828125 0.14235501
3 0.7373047 0.65905094 0.048828125 0.117750436
3 0.2939453 0.25 0.099609375 0.11687171
3 0.29882812 0.5294376 0.04296875 0.12741652
3 0.29785156 0.8290861 0.083984375 0.14850615
0 0.53808594 0.123462215 0.041015625 0.01318102
0 0.49121094 0.2605448 0.041015625 0.01318102
0 0.54003906 0.39586994 0.041015625 0.01318102
0 0.49121094 0.53471 0.037109375 0.01318102
0 0.53808594 0.66915643 0.041015625 0.01318102
0 0.49023438 0.8079965 0.03515625 0.01318102
1 0.41601562 0.53031635 0.046875 0.046572935
1 0.41601562 0.2539543 0.046875 0.04745167
1 0.41601562 0.8282074 0.046875 0.046572935
1 0.62109375 0.3870826 0.046875 0.046572935
1 0.62109375 0.13752197 0.046875 0.046572935
1 0.6191406 0.6599297 0.046875 0.04745167
6 0.5136719 0.49384886 0.015625 0.87873465
