3 0.9712092 0.14961068 0.034548946 0.07675195
3 0.94721687 0.27196884 0.032629557 0.15461624
3 0.7082534 0.52447164 0.026871402 0.2057842
3 0.6833013 0.50945497 0.030710172 0.14460512
3 0.65642995 0.5483871 0.026871402 0.04894327
3 0.63051826 0.61846495 0.032629557 0.066740826
3 0.6017274 0.6529477 0.032629557 0.12903225
3 0.57581574 0.62513906 0.026871402 0.066740826
3 0.55086374 0.6295884 0.030710172 0.066740826
3 0.524952 0.6490545 0.028790787 0.063403785
3 0.4990403 0.67074525 0.030710172 0.057842046
3 0.4721689 0.67352617 0.030710172 0.05228031
3 0.9165067 0.26028922 0.03646833 0.062291436
3 0.4462572 0.68520576 0.028790787 0.057842046
3 0.4184261 0.6929922 0.030710172 0.06006674
3 0.3925144 0.7124583 0.028790787 0.05228031
3 0.3637236 0.71523917 0.032629557 0.046718575
3 0.3378119 0.7185762 0.026871402 0.05339266
3 0.3109405 0.82647383 0.030710172 0.23136818
3 0.2831094 0.7925473 0.032629557 0.14349277
3 0.256238 0.84149057 0.028790787 0.23692992
3 0.2293666 0.7975528 0.028790787 0.14238042
3 0.20441459 0.81145716 0.028790787 0.0567297
3 0.8963532 0.33314794 0.030710172 0.1679644
3 0.1775432 0.9010011 0.028790787 0.06006674
3 0.15259117 0.9004449 0.028790787 0.04560623
3 0.12763916 0.9388209 0.028790787 0.11568409
3 0.098848365 0.9149054 0.028790787 0.043381535
3 0.86948174 0.31256953 0.026871402 0.04226919
3 0.84165066 0.35984427 0.028790787 0.09010011
3 0.815739 0.37263626 0.030710172 0.10678532
3 0.78886753 0.39488322 0.030710172 0.1512792
3 0.76103646 0.38765293 0.032629557 0.10789766
3 0.7332054 0.4516129 0.030710172 0.14682981
0 0.975048 0.062291436 0.015355086 0.10011123
0 0.94817656 0.14961068 0.015355086 0.08565072
0 0.7082534 0.39599556 0.015355086 0.046718575
0 0.68138194 0.42491657 0.015355086 0.020022247
0 0.65451056 0.4794216 0.02303263 0.09343715
0 0.6276392 0.55116796 0.015355086 0.06562848
0 0.6017274 0.5839822 0.013435701 0.0066740825
0 0.57581574 0.5862069 0.015355086 0.0066740825
0 0.54894435 0.5901001 0.015355086 0.0077864295
0 0.5220729 0.6045606 0.02303263 0.027808676
0 0.49520153 0.62513906 0.015355086 0.031145718
0 0.46833014 0.6429366 0.015355086 0.008898776
0 0.9213052 0.20856507 0.015355086 0.043381535
0 0.44145873 0.6496107 0.015355086 0.013348165
0 0.39059502 0.6713014 0.013435701 0.027808676
0 0.3627639 0.68520576 0.015355086 0.008898776
0 0.33589253 0.68854284 0.015355086 0.0066740825
0 0.30902112 0.6985539 0.015355086 0.022246942
0 0.2821497 0.71190214 0.015355086 0.011123471
0 0.25527832 0.71802 0.015355086 0.0077864295
0 0.2303263 0.72135705 0.015355086 0.0077864295
0 0.2034549 0.75139046 0.015355086 0.061179087
0 0.1775432 0.8231368 0.013435701 0.09121246
0 0.8944338 0.2374861 0.015355086 0.0189099
0 0.14971209 0.8715239 0.015355086 0.0100111235
0 0.12284069 0.8759733 0.015355086 0.0077864295
0 0.09596929 0.88375974 0.015355086 0.016685206
0 0.86756235 0.26640713 0.015355086 0.047830924
0 0.84165066 0.3003337 0.013435701 0.024471635
0 0.8080614 0.31535038 0.02303263 0.0122358175
0 0.7898272 0.3147942 0.013435701 0.0066740825
0 0.76199615 0.3231368 0.015355086 0.0189099
0 0.73512477 0.35261402 0.015355086 0.04894327
1 0.03742802 0.013904338 0.028790787 0.027808676
1 0.03742802 0.11735261 0.028790787 0.03448276
1 0.03742802 0.22747497 0.028790787 0.03448276
1 0.03742802 0.33537263 0.028790787 0.027808676
1 0.03742802 0.44716352 0.028790787 0.02669633
1 0.03742802 0.55728585 0.028790787 0.02669633
1 0.03742802 0.66518354 0.028790787 0.031145718
1 0.03742802 0.7780868 0.028790787 0.03003337
1 0.03934741 0.88320357 0.028790787 0.031145718
6 0.06333973 0.4516129 0.019193858 0.88542825
