3 0.9717631 0.965 0.023415977 0.07
3 0.9476584 0.6538889 0.022038568 0.07
3 0.7320937 0.55333334 0.020661157 0.08888889
3 0.7320937 0.55277777 0.020661157 0.09
3 0.7100551 0.5505555 0.0261708 0.094444446
3 0.68250686 0.50333333 0.020661157 0.07111111
3 0.6597796 0.49666667 0.022038568 0.075555556
3 0.637741 0.4511111 0.024793388 0.07111111
3 0.61019284 0.38222224 0.022038568 0.07333333
3 0.58539945 0.36888888 0.022038568 0.06888889
3 0.56336087 0.88277775 0.022038568 0.07666667
3 0.5378788 0.7416667 0.020661157 0.08111111
3 0.9249311 0.6483333 0.020661157 0.05888889
3 0.5151515 0.5477778 0.022038568 0.08444444
3 0.4896694 0.43333334 0.020661157 0.07333333
3 0.46487603 0.42222223 0.020661157 0.07333333
3 0.44352618 0.41666666 0.022038568 0.07333333
3 0.41597795 0.8755556 0.022038568 0.062222224
3 0.39187327 0.7688889 0.020661157 0.075555556
3 0.3684573 0.7727778 0.020661157 0.083333336
3 0.3436639 0.7644445 0.020661157 0.06666667
3 0.32024795 0.77111113 0.020661157 0.08
3 0.29545453 0.6961111 0.020661157 0.07444444
3 0.87672174 0.5827778 0.020661157 0.07666667
3 0.27066115 0.8838889 0.020661157 0.08111111
3 0.24655648 0.685 0.022038568 0.07666667
3 0.1983471 0.6805556 0.022038568 0.067777775
3 0.15082644 0.6805556 0.020661157 0.067777775
3 0.17286502 0.68722224 0.020661157 0.083333336
3 0.22520661 0.68833333 0.020661157 0.083333336
3 0.12741047 0.59444445 0.020661157 0.07111111
3 0.10123967 0.8811111 0.020661157 0.07111111
3 0.079889804 0.8844444 0.022038568 0.07777778
3 0.053030305 0.495 0.017906336 0.072222225
3 0.90220386 0.5961111 0.027548209 0.07444444
3 0.8526171 0.5605556 0.022038568 0.06333333
3 0.82988983 0.55833334 0.0261708 0.078888886
3 0.8057851 0.55833334 0.022038568 0.078888886
3 0.7789256 0.55833334 0.020661157 0.078888886
3 0.7555096 0.5427778 0.020661157 0.06555556
0 0.9738292 0.5711111 0.024793388 0.70444447
0 0.9490358 0.4372222 0.024793388 0.35
0 0.73002756 0.35 0.024793388 0.30666667
0 0.7066116 0.335 0.024793388 0.33
0 0.68250686 0.33 0.023415977 0.26222223
0 0.65909094 0.32722223 0.023415977 0.25
0 0.6349862 0.32055557 0.024793388 0.18111111
0 0.60881543 0.29777777 0.024793388 0.08888889
0 0.5860882 0.26777777 0.023415977 0.12444445
0 0.56198347 0.4911111 0.024793388 0.69555557
0 0.5371901 0.43 0.024793388 0.5311111
0 0.5137741 0.35055557 0.024793388 0.2988889
0 0.92424244 0.365 0.024793388 0.49444443
0 0.4889807 0.35555556 0.024793388 0.07333333
0 0.46556473 0.2938889 0.024793388 0.17666666
0 0.44077134 0.30833334 0.024793388 0.13444445
0 0.41735536 0.5338889 0.024793388 0.61
0 0.39187327 0.55277777 0.023415977 0.34777778
0 0.29752067 0.5222222 0.024793388 0.26444444
0 0.36914602 0.58055556 0.024793388 0.29222223
0 0.3443526 0.5933333 0.024793388 0.26666668
0 0.32093665 0.60388887 0.024793388 0.24555555
0 0.27134988 0.6511111 0.024793388 0.37111112
0 0.9015151 0.3472222 0.023415977 0.4077778
0 0.24655648 0.58055556 0.024793388 0.26333332
0 0.2231405 0.47944444 0.024793388 0.32555556
0 0.1983471 0.45777777 0.024793388 0.36888888
0 0.17561984 0.55444443 0.023415977 0.17555556
0 0.15013774 0.40388888 0.024793388 0.47666666
0 0.12534435 0.38333333 0.024793388 0.3422222
0 0.10261708 0.7072222 0.023415977 0.2611111
0 0.07713499 0.78 0.024793388 0.11333334
0 0.055785123 0.38722223 0.023415977 0.13
0 0.87603307 0.355 0.024793388 0.37
0 0.8526171 0.37166667 0.024793388 0.30555555
0 0.8292011 0.39444444 0.024793388 0.24
0 0.8044077 0.34111112 0.024793388 0.3422222
0 0.7782369 0.37388888 0.024793388 0.27222222
0 0.75482094 0.32 0.024793388 0.36666667
1 0.023415977 0.022222223 0.019283747 0.031111112
1 0.023415977 0.46 0.019283747 0.031111112
1 0.024793388 0.8988889 0.019283747 0.031111112
6 0.040633608 0.49888888 0.012396694 0.96444446
