3 0.87308866 0.26094276 0.04587156 0.18181819
3 0.79204893 0.28324917 0.042813454 0.08838384
3 0.70642203 0.28198653 0.048929665 0.08754209
3 0.617737 0.6746633 0.048929665 0.086700335
3 0.5321101 0.8337542 0.055045873 0.0479798
3 0.45107034 0.8564815 0.051987767 0.0479798
3 0.36391437 0.97180134 0.055045873 0.056397308
3 0.26452598 0.19276094 0.051987767 0.17171717
3 0.17431192 0.67424244 0.055045873 0.08417509
3 0.09174312 0.7142256 0.07339449 0.078282826
0 0.87767583 0.13425925 0.07339449 0.069865316
0 0.7905199 0.16750842 0.070336394 0.13636364
0 0.704893 0.21254209 0.070336394 0.049663298
0 0.62232417 0.45328283 0.070336394 0.3543771
0 0.5351682 0.71633 0.07339449 0.18181819
0 0.45107034 0.7962963 0.0764526 0.06902357
0 0.36544344 0.87247473 0.0764526 0.13720539
0 0.17584097 0.45412457 0.070336394 0.3543771
0 0.09174312 0.5450337 0.07339449 0.266835
0 0.26452598 0.080387205 0.070336394 0.049663298
1 0.87308866 0.07112794 0.04587156 0.056397308
1 0.7905199 0.07112794 0.04587156 0.056397308
1 0.7033639 0.15867004 0.048929665 0.056397308
1 0.617737 0.24579124 0.048929665 0.05892256
1 0.5321101 0.5976431 0.048929665 0.055555556
1 0.44954127 0.73063976 0.048929665 0.060606062
1 0.36085626 0.7723064 0.048929665 0.05976431
1 0.2614679 0.026936026 0.04587156 0.053872053
1 0.17889908 0.246633 0.04587156 0.05892256
1 0.090214066 0.381734 0.04587156 0.056397308
