3 0.8918067 0.9242228 0.083333336 0.053108808
3 0.82387954 0.8218912 0.083333336 0.053108808
3 0.7867647 0.71891195 0.083333336 0.051813472
3 0.6845238 0.621114 0.083333336 0.053108808
3 0.47969186 0.5200777 0.083333336 0.053108808
3 0.4164916 0.42551813 0.079481795 0.053108808
3 0.37920168 0.3218912 0.079831935 0.053108808
3 0.2435224 0.22215027 0.079481795 0.053108808
3 0.05007003 0.11722798 0.087535016 0.053108808
0 0.20868348 0.22150259 0.19327731 0.08031088
0 0.37937674 0.3218912 0.12640056 0.079015546
0 0.4660364 0.41904145 0.022408964 0.079015546
0 0.5176821 0.5200777 0.05567227 0.079015546
0 0.67296916 0.6217617 0.15896359 0.08031088
0 0.82668066 0.7215026 0.05812325 0.08031088
0 0.9296219 0.9242228 0.05812325 0.079015546
0 0.8797269 0.8238342 0.022058824 0.08031088
0 0.08858544 0.12176166 0.022408964 0.08031088
