3 0.18565789 0.2808108 0.15657894 0.09243243
3 0.44013157 0.2808108 0.12394737 0.09243243
3 0.53842103 0.09540541 0.14210527 0.09243243
3 0.29092106 0.11945946 0.13605264 0.14918919
3 0.71657896 0.6613513 0.15368421 0.036216218
3 0.65592104 0.2808108 0.17973684 0.09243243
3 0.18578948 0.7651351 0.110526316 0.09243243
3 0.44013157 0.7651351 0.12394737 0.09243243
3 0.8235526 0.7635135 0.1581579 0.09243243
3 0.2938158 0.8986486 0.2086842 0.09243243
3 0.5402632 0.8986486 0.20157894 0.09243243
3 0.9282895 0.8986486 0.07552632 0.09243243
3 0.9263158 0.27432433 0.12 0.09243243
0 0.18460526 0.5289189 0.035 0.037297297
0 0.18460526 0.4945946 0.035 0.037837837
0 0.8235526 0.53 0.035 0.037297297
0 0.53960526 0.52837837 0.035 0.037297297
0 0.5398684 0.49432433 0.035 0.037297297
0 0.29157895 0.5289189 0.034736842 0.037297297
0 0.29171053 0.4945946 0.035 0.037837837
0 0.43973684 0.52837837 0.034736842 0.037297297
0 0.43986842 0.49432433 0.035 0.037297297
0 0.9285526 0.52837837 0.035 0.037297297
0 0.9288158 0.49432433 0.035 0.037297297
0 0.70789474 0.5313513 0.034736842 0.037837837
0 0.65592104 0.49432433 0.035 0.037297297
6 0.084078945 0.5116216 0.16815789 0.0102702705
6 0.23881578 0.51216215 0.07394737 0.0102702705
6 0.36592105 0.51216215 0.114473686 0.0102702705
6 0.49 0.5116216 0.06736842 0.0102702705
6 0.5975 0.5116216 0.08342105 0.0102702705
6 0.6818421 0.51135135 0.019473685 0.010810811
6 0.76578945 0.51135135 0.08263158 0.010810811
6 0.9727632 0.51054054 0.054473683 0.0102702705
6 0.8763158 0.5116216 0.072105266 0.0102702705
