3 0.71918917 0.18565789 0.09243243 0.15657894
3 0.71918917 0.44013157 0.09243243 0.12394737
3 0.9045946 0.53842103 0.09243243 0.14210527
3 0.88054055 0.29092106 0.14918919 0.13605264
3 0.33864865 0.71657896 0.036216218 0.15368421
3 0.71918917 0.65592104 0.09243243 0.17973684
3 0.23486486 0.18578948 0.09243243 0.110526316
3 0.23486486 0.44013157 0.09243243 0.12394737
3 0.23648648 0.8235526 0.09243243 0.1581579
3 0.10135135 0.2938158 0.09243243 0.2086842
3 0.10135135 0.5402632 0.09243243 0.20157894
3 0.10135135 0.9282895 0.09243243 0.07552632
3 0.7256757 0.9263158 0.09243243 0.12
0 0.47108108 0.18460526 0.037297297 0.035
0 0.5054054 0.18460526 0.037837837 0.035
0 0.47 0.8235526 0.037297297 0.035
0 0.47162163 0.53960526 0.037297297 0.035
0 0.5056757 0.5398684 0.037297297 0.035
0 0.47108108 0.29157895 0.037297297 0.034736842
0 0.5054054 0.29171053 0.037837837 0.035
0 0.47162163 0.43973684 0.037297297 0.034736842
0 0.5056757 0.43986842 0.037297297 0.035
0 0.47162163 0.9285526 0.037297297 0.035
0 0.5056757 0.9288158 0.037297297 0.035
0 0.46864864 0.70789474 0.037837837 0.034736842
0 0.5056757 0.65592104 0.037297297 0.035
6 0.48837838 0.084078945 0.0102702705 0.16815789
6 0.48783785 0.23881578 0.0102702705 0.07394737
6 0.48783785 0.36592105 0.0102702705 0.114473686
6 0.48837838 0.49 0.0102702705 0.06736842
6 0.48837838 0.5975 0.0102702705 0.08342105
6 0.48864865 0.6818421 0.010810811 0.019473685
6 0.48864865 0.76578945 0.010810811 0.08263158
6 0.48945946 0.9727632 0.0102702705 0.054473683
6 0.48837838 0.8763158 0.0102702705 0.072105266
