3 0.21982759 0.8333333 0.14439656 0.16666667
3 0.48760775 0.85700756 0.14547414 0.20643939
3 0.76077586 0.8323864 0.16810344 0.16477273
3 0.74946123 0.32291666 0.14331897 0.21022727
3 0.50053877 0.32102272 0.14331897 0.21022727
3 0.23814656 0.30871212 0.1788793 0.18181819
0 0.21659483 0.62784094 0.13577586 0.17234848
0 0.49461207 0.62689394 0.1336207 0.17045455
0 0.7429957 0.6287879 0.14331897 0.17424242
0 0.7478448 0.12215909 0.15301724 0.17234848
0 0.49245688 0.12689394 0.12931034 0.17424242
0 0.2192888 0.115530305 0.1411638 0.17424242
4 0.2338362 0.62215906 0.058189657 0.12310606
4 0.51400864 0.625947 0.047413792 0.12310606
4 0.76993537 0.62784094 0.05064655 0.12689394
4 0.7747845 0.12026515 0.077586204 0.11931818
4 0.5086207 0.11931818 0.06681035 0.09469697
4 0.23922414 0.10511363 0.05387931 0.11931818
5 0.18318966 0.6373106 0.019396551 0.039772727
5 0.46174568 0.6373106 0.018318966 0.039772727
5 0.70581895 0.6373106 0.019396551 0.039772727
5 0.70581895 0.12405303 0.019396551 0.039772727
5 0.46174568 0.12405303 0.018318966 0.039772727
5 0.18318966 0.12215909 0.019396551 0.039772727
6 0.120150864 0.81534094 0.06788793 0.3693182
6 0.3577586 0.63825756 0.15086207 0.018939395
6 0.6179957 0.63825756 0.11961207 0.018939395
6 0.85775864 0.38257575 0.09051724 0.53409094
6 0.6158405 0.12215909 0.11961207 0.020833334
6 0.3588362 0.12405303 0.14439656 0.020833334
