3 0.08988764 0.6379747 0.13483146 0.49620253
3 0.2463267 0.6379747 0.13483146 0.49620253
3 0.41097668 0.6443038 0.13569577 0.49367088
3 0.5829732 0.6443038 0.14952463 0.49367088
3 0.7428695 0.6443038 0.14952463 0.49367088
3 0.9019015 0.66329116 0.15298185 0.5316456
0 0.045375973 0.27974683 0.042350907 0.12911393
0 0.20872948 0.28227848 0.044079516 0.12911393
0 0.36992222 0.27974683 0.04494382 0.12911393
0 0.5328436 0.28101265 0.044079516 0.13164558
0 0.69446844 0.27974683 0.044079516 0.12911393
0 0.85609335 0.28227848 0.044079516 0.12911393
1 0.047536734 0.15316455 0.050129645 0.09367089
1 0.21089023 0.1493671 0.051858254 0.09113924
1 0.36992222 0.14556962 0.051858254 0.09367089
1 0.5315471 0.15696202 0.051858254 0.09113924
1 0.7104581 0.15316455 0.051858254 0.09367089
1 0.8535004 0.1493671 0.05099395 0.09113924
6 0.12705272 0.28227848 0.12100259 0.032911394
6 0.28954193 0.28227848 0.12100259 0.032911394
6 0.45159897 0.28227848 0.12013829 0.032911394
6 0.6140882 0.28227848 0.12013829 0.032911394
6 0.775713 0.28227848 0.12013829 0.032911394
6 0.9360415 0.28227848 0.115816765 0.032911394
