2 0.76919293 0.058454297 0.3238189 0.073754415
2 0.738189 0.25343272 0.25984251 0.06198509
2 0.2913386 0.74637115 0.2874016 0.06630051
2 0.2234252 0.35249117 0.41732284 0.07806983
2 0.2893701 0.1555512 0.28346458 0.06630051
2 0.8031496 0.45174578 0.39173228 0.06865437
2 0.77362204 0.64515495 0.33464566 0.07963908
2 0.22687007 0.9468419 0.4163386 0.07806983
2 0.75442916 0.8389565 0.28444883 0.07179286
2 0.2711614 0.55433506 0.3257874 0.08160063
3 0.2593504 0.06492742 0.10531496 0.093762256
3 0.8853347 0.14672421 0.10137795 0.08160063
3 0.8312008 0.32267556 0.058070865 0.05610043
3 0.10531496 0.24754806 0.21062993 0.11220086
3 0.21948819 0.44998038 0.18897638 0.10513927
3 0.21948819 0.6479011 0.18897638 0.1063162
3 0.96653545 0.52961946 0.06692913 0.06041585
3 0.8951772 0.7314633 0.062007874 0.07885445
3 0.8090551 0.9366418 0.114173226 0.11887015
3 0.16633858 0.8413103 0.09448819 0.10945469
0 0.59202754 0.05825814 0.034448817 0.013730875
0 0.59202754 0.2540212 0.034448817 0.013730875
0 0.59202754 0.45096117 0.034448817 0.013730875
0 0.5910433 0.64476264 0.034448817 0.013730875
0 0.5969488 0.83856416 0.034448817 0.013730875
0 0.45127952 0.9462534 0.034448817 0.014123186
0 0.44931102 0.5561004 0.034448817 0.013730875
0 0.45127952 0.7467634 0.034448817 0.013730875
0 0.44931102 0.35249117 0.034448817 0.013730875
0 0.44832677 0.15535504 0.034448817 0.014123186
1 0.8326772 0.057669673 0.084645666 0.03452334
1 0.7859252 0.2544135 0.06791338 0.027069438
1 0.91043305 0.45154962 0.09645669 0.053354256
1 0.2273622 0.15672813 0.08070866 0.03413103
1 0.113188975 0.35170656 0.084645666 0.03883876
1 0.20177165 0.5525696 0.098425195 0.06316202
1 0.83366144 0.6422126 0.098425195 0.051785015
1 0.23179133 0.74597883 0.08956693 0.03256179
1 0.8051181 0.8389565 0.09645669 0.053746566
1 0.10580709 0.9464496 0.091535434 0.053746566
6 0.52952754 0.64770496 0.05511811 0.68968225
6 0.5300197 0.15574735 0.05610236 0.29580227
