2 0.058454297 0.23080708 0.073754415 0.3238189
2 0.25343272 0.26181102 0.06198509 0.25984251
2 0.74637115 0.70866144 0.06630051 0.2874016
2 0.35249117 0.7765748 0.07806983 0.41732284
2 0.1555512 0.71062994 0.06630051 0.28346458
2 0.45174578 0.19685039 0.06865437 0.39173228
2 0.64515495 0.22637795 0.07963908 0.33464566
2 0.9468419 0.77312994 0.07806983 0.4163386
2 0.8389565 0.24557087 0.07179286 0.28444883
2 0.55433506 0.72883856 0.08160063 0.3257874
3 0.06492742 0.7406496 0.093762256 0.10531496
3 0.14672421 0.11466535 0.08160063 0.10137795
3 0.32267556 0.1687992 0.05610043 0.058070865
3 0.24754806 0.89468503 0.11220086 0.21062993
3 0.44998038 0.7805118 0.10513927 0.18897638
3 0.6479011 0.7805118 0.1063162 0.18897638
3 0.52961946 0.033464566 0.06041585 0.06692913
3 0.7314633 0.10482284 0.07885445 0.062007874
3 0.9366418 0.19094488 0.11887015 0.114173226
3 0.8413103 0.83366144 0.10945469 0.09448819
0 0.05825814 0.40797246 0.013730875 0.034448817
0 0.2540212 0.40797246 0.013730875 0.034448817
0 0.45096117 0.40797246 0.013730875 0.034448817
0 0.64476264 0.4089567 0.013730875 0.034448817
0 0.83856416 0.40305117 0.013730875 0.034448817
0 0.9462534 0.5487205 0.014123186 0.034448817
0 0.5561004 0.550689 0.013730875 0.034448817
0 0.7467634 0.5487205 0.013730875 0.034448817
0 0.35249117 0.550689 0.013730875 0.034448817
0 0.15535504 0.55167323 0.014123186 0.034448817
1 0.057669673 0.16732283 0.03452334 0.084645666
1 0.2544135 0.2140748 0.027069438 0.06791338
1 0.45154962 0.08956693 0.053354256 0.09645669
1 0.15672813 0.7726378 0.03413103 0.08070866
1 0.35170656 0.886811 0.03883876 0.084645666
1 0.5525696 0.7982283 0.06316202 0.098425195
1 0.6422126 0.16633858 0.051785015 0.098425195
1 0.74597883 0.7682087 0.03256179 0.08956693
1 0.8389565 0.19488189 0.053746566 0.09645669
1 0.9464496 0.89419293 0.053746566 0.091535434
6 0.64770496 0.47047246 0.68968225 0.05511811
6 0.15574735 0.46998033 0.29580227 0.05610236
