2 0.62890625 0.103708 0.203125 0.08458865
2 0.6298828 0.3690614 0.20117188 0.08458865
2 0.6298828 0.89629203 0.20117188 0.08458865
2 0.37304688 0.23580533 0.203125 0.08458865
2 0.3720703 0.5011588 0.20117188 0.08458865
2 0.37109375 0.7636153 0.19921875 0.083429895
2 0.6298828 0.63151795 0.20117188 0.083429895
3 0.3701172 0.89629203 0.15429688 0.14716107
3 0.6298828 0.76419467 0.15429688 0.14716107
3 0.3701172 0.63209736 0.15429688 0.14716107
3 0.6298828 0.5 0.15429688 0.14716107
3 0.3701172 0.36848205 0.15429688 0.14831981
3 0.6298828 0.23696408 0.15429688 0.14716107
3 0.3701172 0.10486674 0.15429688 0.14716107
0 0.5 0.10428737 0.0625 0.13673232
0 0.5 0.3690614 0.0625 0.13789108
0 0.5 0.63209736 0.0625 0.13789108
0 0.5 0.8968714 0.0625 0.13673232
0 0.5019531 0.2363847 0.0625 0.13673232
0 0.5019531 0.50173813 0.0625 0.13673232
0 0.50097656 0.7630359 0.060546875 0.13789108
1 0.7636719 0.8968714 0.05078125 0.053302433
1 0.23925781 0.76419467 0.048828125 0.05446118
1 0.7636719 0.63151795 0.05078125 0.053302433
1 0.23925781 0.50057936 0.048828125 0.05561993
1 0.7636719 0.36848205 0.05078125 0.05561993
1 0.23925781 0.2363847 0.048828125 0.05561993
1 0.7636719 0.10486674 0.05078125 0.052143686
4 0.66015625 0.3696408 0.0625 0.037079953
4 0.34375 0.50173813 0.0625 0.037079953
4 0.34375 0.7636153 0.0625 0.037079953
4 0.6582031 0.8968714 0.0625 0.037079953
4 0.66015625 0.63209736 0.0703125 0.0405562
4 0.34277344 0.23696408 0.064453125 0.0405562
4 0.66015625 0.10486674 0.0703125 0.0405562
