2 0.64746094 0.7870257 0.15429688 0.09547123
2 0.64746094 0.58017135 0.15429688 0.09547123
2 0.64746094 0.373317 0.15429688 0.09547123
2 0.64746094 0.16646267 0.15429688 0.09547123
3 0.22753906 0.875153 0.16210938 0.1615667
3 0.22558594 0.66829866 0.13476562 0.1615667
3 0.22753906 0.46144432 0.16210938 0.1615667
3 0.2265625 0.25642595 0.2109375 0.16034272
0 0.40722656 0.7870257 0.111328125 0.070991434
0 0.40625 0.5795594 0.11328125 0.069767445
0 0.40625 0.372705 0.11328125 0.069767445
0 0.40625 0.16829865 0.11328125 0.069767445
1 0.4482422 0.6817625 0.060546875 0.07588739
1 0.4482422 0.47613218 0.060546875 0.07343941
1 0.4482422 0.26988983 0.060546875 0.0746634
1 0.44628906 0.07955936 0.060546875 0.07588739
4 0.6455078 0.7864137 0.072265625 0.04528764
4 0.6455078 0.58017135 0.052734375 0.024479805
4 0.6455078 0.37148103 0.060546875 0.05997552
4 0.64746094 0.16891065 0.076171875 0.04895961
5 0.40722656 0.7870257 0.068359375 0.046511628
5 0.40722656 0.5795594 0.068359375 0.047735617
5 0.4033203 0.373929 0.068359375 0.047735617
5 0.40722656 0.16768666 0.068359375 0.046511628
6 0.40625 0.8861689 0.0234375 0.13219094
6 0.34179688 0.70379436 0.4765625 0.17870256
6 0.34179688 0.49632803 0.4765625 0.17992656
6 0.34179688 0.29130965 0.4765625 0.17870256
6 0.34179688 0.100367196 0.4765625 0.15177478
