2 0.79022986 0.08983051 0.02183908 0.033898305
2 0.64770114 0.91101694 0.02183908 0.03220339
2 0.21839081 0.29237288 0.032183908 0.20847458
2 0.07643678 0.7076271 0.033333335 0.20847458
2 0.504023 0.08898305 0.02183908 0.03220339
2 0.36149424 0.91101694 0.02183908 0.03220339
2 0.21896552 0.09067797 0.02183908 0.03220339
2 0.07643678 0.91101694 0.02183908 0.03220339
2 0.78965515 0.29237288 0.032183908 0.20847458
2 0.64827585 0.7076271 0.032183908 0.20847458
2 0.5045977 0.29237288 0.032183908 0.20847458
2 0.36091954 0.7076271 0.032183908 0.20847458
3 0.87413794 0.25677967 0.12068965 0.29661018
3 0.73160917 0.7432203 0.12068965 0.29661018
3 0.21839081 0.2940678 0.022988506 0.1338983
3 0.07586207 0.70932204 0.022988506 0.1338983
3 0.58908045 0.25677967 0.12068965 0.29661018
3 0.4454023 0.73644066 0.12068965 0.29661018
3 0.304023 0.25677967 0.12068965 0.29661018
3 0.16034482 0.7432203 0.12068965 0.29661018
3 0.79022986 0.29237288 0.02183908 0.1338983
3 0.64770114 0.7076271 0.02183908 0.1338983
3 0.5045977 0.29067796 0.022988506 0.1338983
3 0.3626437 0.7059322 0.02183908 0.1338983
0 0.86264366 0.5381356 0.1045977 0.2322034
0 0.7183908 0.46271187 0.10344828 0.23050848
0 0.57586205 0.5381356 0.101149425 0.2322034
0 0.43275863 0.46271187 0.1045977 0.23050848
0 0.2902299 0.5381356 0.10229885 0.2322034
0 0.14712644 0.46271187 0.10344828 0.23050848
1 0.858046 0.71101695 0.035632186 0.1
1 0.7155172 0.28898305 0.035632186 0.1
1 0.5718391 0.71101695 0.035632186 0.1
1 0.42873564 0.28898305 0.03448276 0.1
1 0.2856322 0.71101695 0.035632186 0.1
1 0.14310345 0.28898305 0.035632186 0.1
4 0.86264366 0.49915254 0.040229887 0.062711865
4 0.72011495 0.49915254 0.040229887 0.076271184
4 0.57643676 0.49915254 0.044827588 0.06949153
4 0.43275863 0.50084746 0.044827588 0.06949153
4 0.2902299 0.49915254 0.044827588 0.06949153
4 0.14770114 0.50084746 0.044827588 0.06949153
6 0.5045977 0.50084746 0.86436784 0.2220339
