2 0.2463002 0.4968051 0.43763214 0.25878593
2 0.2463002 0.7995208 0.43763214 0.2539936
2 0.71987313 0.43610224 0.35729387 0.24600638
2 0.68393236 0.14536741 0.33615223 0.21086262
2 0.692389 0.7492013 0.30232558 0.2747604
2 0.18604651 0.20527157 0.26215646 0.22204472
3 0.29069766 0.8003195 0.031712472 0.19488817
3 0.81395346 0.75 0.029598309 0.19329074
3 0.7536998 0.48003194 0.15010571 0.12300319
3 0.17758985 0.24440895 0.15221988 0.12460064
3 0.71881604 0.18290734 0.12684989 0.11980831
3 0.26321355 0.49840257 0.031712472 0.19488817
3 0.86469346 0.43690097 0.029598309 0.19329074
3 0.29069766 0.20527157 0.031712472 0.19329074
3 0.82241017 0.14616613 0.029598309 0.19329074
3 0.17547569 0.8626198 0.13953489 0.1086262
3 0.7357294 0.8266773 0.08033827 0.08146965
3 0.65856236 0.7995208 0.065539114 0.13578275
3 0.15221988 0.5543131 0.114164904 0.115015976
0 0.4820296 0.571885 0.033826638 0.019169329
0 0.48308668 0.91214055 0.031712472 0.019169329
0 0.5 0.063897766 0.035940804 0.019169329
0 0.52537 0.4025559 0.035940804 0.019169329
0 0.52537 0.74121404 0.035940804 0.019169329
0 0.47991544 0.23162939 0.033826638 0.019169329
1 0.3562368 0.798722 0.069767445 0.1373802
1 0.88266385 0.7492013 0.069767445 0.1373802
1 0.3308668 0.49440894 0.069767445 0.12939297
1 0.9281184 0.4392971 0.07610994 0.15335463
1 0.3562368 0.20527157 0.069767445 0.13897763
1 0.8900634 0.14376996 0.067653276 0.14057508
4 0.17547569 0.74520767 0.14799154 0.11980831
4 0.70295984 0.70447284 0.15433404 0.1629393
4 0.14799154 0.43769968 0.16490486 0.115015976
4 0.7505285 0.37539935 0.16490486 0.08945687
4 0.17970401 0.14376996 0.1564482 0.08306709
4 0.7124736 0.104632586 0.1564482 0.11661342
6 0.50317127 0.5351438 0.016913319 0.9297125
6 0.50317127 0.028753994 0.016913319 0.057507988
