2 0.6347458 0.87062144 0.025423728 0.016949153
2 0.36525422 0.72259885 0.025423728 0.016949153
2 0.6347458 0.57344633 0.025423728 0.016949153
2 0.36525422 0.42542374 0.025423728 0.016949153
2 0.6347458 0.27740112 0.025423728 0.016949153
2 0.36525422 0.12881356 0.025423728 0.018079096
3 0.21694915 0.87062144 0.24745762 0.08248588
3 0.7855932 0.7214689 0.2457627 0.08248588
3 0.21694915 0.57344633 0.24745762 0.08248588
3 0.7855932 0.42542374 0.2457627 0.08248588
3 0.21694915 0.2762712 0.24745762 0.08248588
3 0.7855932 0.12881356 0.2457627 0.08361582
0 0.49915254 0.8717514 0.19152543 0.12768361
0 0.49915254 0.72372884 0.19152543 0.12768361
0 0.49915254 0.57344633 0.19152543 0.12768361
0 0.49915254 0.42542374 0.19152543 0.12768361
0 0.49915254 0.27683616 0.19152543 0.12881356
0 0.49915254 0.12824859 0.19152543 0.12768361
1 0.7754237 0.87062144 0.2322034 0.04180791
1 0.23728813 0.72090393 0.21694915 0.042937852
1 0.770339 0.57344633 0.2220339 0.04180791
1 0.23983051 0.4259887 0.20169492 0.042937852
1 0.7644068 0.2779661 0.2101695 0.042937852
1 0.23050848 0.12768361 0.22033899 0.040677965
4 0.49915254 0.87118644 0.06610169 0.042937852
4 0.50084746 0.7220339 0.06949153 0.04519774
4 0.49915254 0.57288134 0.06949153 0.04519774
4 0.50084746 0.4242938 0.06949153 0.046327684
4 0.49915254 0.27740112 0.06949153 0.046327684
4 0.5 0.12711865 0.07118644 0.046327684
6 0.4423729 0.8700565 0.118644066 0.1559322
6 0.55762714 0.7220339 0.118644066 0.1559322
6 0.4423729 0.5740113 0.118644066 0.1559322
6 0.55762714 0.42485875 0.118644066 0.1559322
6 0.4423729 0.27683616 0.118644066 0.1559322
6 0.55762714 0.12881356 0.118644066 0.1559322
