2 0.89745915 0.72542375 0.17967331 0.32542372
2 0.7876588 0.27372882 0.1814882 0.32711864
2 0.6778584 0.7279661 0.17967331 0.32711864
2 0.5680581 0.27542374 0.17785844 0.32711864
2 0.45916516 0.7279661 0.17785844 0.32711864
2 0.3493648 0.27542374 0.17967331 0.32711864
2 0.24047187 0.7262712 0.17967331 0.32711864
2 0.1306715 0.27542374 0.17785844 0.32711864
3 0.89745915 0.7 0.13611615 0.19661017
3 0.7867514 0.2983051 0.13611615 0.20338982
3 0.6778584 0.7 0.13611615 0.19661017
3 0.5689655 0.30169493 0.13611615 0.19661017
3 0.45916516 0.7 0.13430128 0.19661017
3 0.35027224 0.30169493 0.13430128 0.19661017
3 0.23956443 0.7 0.13430128 0.19661017
3 0.12794918 0.30169493 0.13611615 0.19661017
0 0.89745915 0.5 0.016333938 0.06440678
0 0.7876588 0.50084746 0.014519056 0.09322034
0 0.6787659 0.5 0.014519056 0.06440678
0 0.5680581 0.49915254 0.014519056 0.049152542
0 0.45916516 0.5 0.014519056 0.06440678
0 0.3493648 0.50084746 0.016333938 0.09322034
0 0.23865698 0.5 0.016333938 0.06440678
0 0.12976407 0.50084746 0.016333938 0.09322034
1 0.87568057 0.49915254 0.027223231 0.07966102
1 0.76678765 0.49915254 0.027223231 0.07966102
1 0.65789473 0.49830508 0.027223231 0.0779661
1 0.5471869 0.49915254 0.027223231 0.076271184
1 0.43647912 0.49830508 0.027223231 0.0779661
1 0.3275862 0.49915254 0.027223231 0.076271184
1 0.21778585 0.5 0.025408348 0.0779661
1 0.10798548 0.5 0.027223231 0.0779661
4 0.26678765 0.840678 0.07622504 0.07457627
4 0.4818512 0.8338983 0.08892922 0.044067796
4 0.6987296 0.83728814 0.06533575 0.06101695
4 0.92558986 0.8338983 0.06896552 0.07457627
4 0.14791289 0.1618644 0.0707804 0.06610169
4 0.3738657 0.15677966 0.07259528 0.076271184
4 0.584392 0.1601695 0.083484575 0.06949153
4 0.8067151 0.1601695 0.08892922 0.076271184
6 0.9337568 0.5 0.06352087 0.016949153
6 0.8430127 0.5 0.09981851 0.016949153
6 0.73321235 0.5 0.10163339 0.016949153
6 0.62341195 0.5 0.09981851 0.016949153
6 0.51451904 0.5 0.09981851 0.016949153
6 0.4047187 0.5 0.10163339 0.016949153
6 0.29401088 0.5 0.10163339 0.016949153
6 0.18511796 0.5 0.09800363 0.016949153
6 0.085299455 0.5 0.07622504 0.016949153
