2 0.62700534 0.4568082 0.17914438 0.017569546
2 0.71657753 0.30893117 0.37967914 0.017569546
2 0.2593583 0.8265007 0.23529412 0.016105417
2 0.2593583 0.23792094 0.23529412 0.016105417
2 0.71791446 0.6046852 0.38235295 0.017569546
2 0.62700534 0.16251831 0.17914438 0.017569546
2 0.62700534 0.7510981 0.17914438 0.017569546
2 0.71791446 0.9033675 0.38235295 0.017569546
2 0.315508 0.38506588 0.122994654 0.017569546
2 0.315508 0.67862374 0.122994654 0.019033674
2 0.3181818 0.09077599 0.122994654 0.017569546
2 0.2593583 0.5329429 0.23529412 0.017569546
3 0.8462567 0.8272328 0.1631016 0.111273795
3 0.11363637 0.897511 0.1631016 0.111273795
3 0.6617647 0.09224012 0.1631016 0.111273795
3 0.23395722 0.16032211 0.1631016 0.10980967
3 0.657754 0.67642754 0.16042781 0.111273795
3 0.23395722 0.7510981 0.1631016 0.111273795
3 0.8542781 0.52928257 0.1631016 0.10980967
3 0.11096257 0.60175693 0.1631016 0.111273795
3 0.6631016 0.38213763 0.16042781 0.111273795
3 0.23395722 0.4568082 0.1631016 0.111273795
3 0.8462567 0.24158126 0.1631016 0.111273795
3 0.11363637 0.30746704 0.1631016 0.111273795
0 0.46524063 0.9011713 0.10695187 0.060029283
0 0.46524063 0.8272328 0.10695187 0.058565155
0 0.46524063 0.1647145 0.10695187 0.060029283
0 0.46524063 0.09150805 0.10695187 0.060029283
0 0.46524063 0.7525622 0.10695187 0.058565155
0 0.46524063 0.6793558 0.10695187 0.058565155
0 0.46524063 0.6061493 0.10695187 0.058565155
0 0.46524063 0.5322108 0.10695187 0.060029283
0 0.46524063 0.4590044 0.10695187 0.060029283
0 0.46524063 0.38506588 0.10695187 0.058565155
0 0.46524063 0.31185943 0.10695187 0.058565155
0 0.46524063 0.238653 0.10695187 0.058565155
1 0.46390375 0.8997072 0.040106952 0.04831625
1 0.46390375 0.82576865 0.040106952 0.046852123
1 0.46657753 0.16325037 0.040106952 0.04831625
1 0.46256685 0.09077599 0.04278075 0.046852123
1 0.46390375 0.7525622 0.040106952 0.046852123
1 0.46657753 0.67862374 0.040106952 0.04831625
1 0.46390375 0.6039531 0.040106952 0.04831625
1 0.46390375 0.5329429 0.040106952 0.046852123
1 0.46390375 0.45827234 0.040106952 0.046852123
1 0.46390375 0.38360175 0.040106952 0.046852123
1 0.46390375 0.31185943 0.040106952 0.046852123
1 0.46657753 0.23645681 0.040106952 0.04831625
