2 0.1358209 0.61694914 0.104477614 0.13559322
2 0.280597 0.38305086 0.104477614 0.13559322
2 0.71791047 0.7855932 0.104477614 0.19830509
2 0.42686567 0.6161017 0.104477614 0.1338983
2 0.5716418 0.3822034 0.104477614 0.1338983
2 0.71791047 0.61694914 0.104477614 0.13559322
2 0.8626866 0.38305086 0.104477614 0.13559322
2 0.1358209 0.7855932 0.104477614 0.19830509
2 0.28208956 0.21440677 0.104477614 0.19830509
2 0.42537314 0.7855932 0.104477614 0.19830509
2 0.5716418 0.21440677 0.104477614 0.19830509
3 0.71791047 0.29915255 0.11940298 0.34067798
3 0.8626866 0.6991525 0.11940298 0.34067798
3 0.42686567 0.29745764 0.11940298 0.34067798
3 0.5716418 0.69661015 0.11940298 0.33898306
3 0.13880597 0.29745764 0.11940298 0.34067798
3 0.28432837 0.69661015 0.12089552 0.33898306
0 0.8641791 0.21440677 0.104477614 0.19830509
0 0.13507463 0.5 0.034328356 0.040677965
0 0.28134328 0.49830508 0.034328356 0.040677965
0 0.42761195 0.50338984 0.034328356 0.040677965
0 0.5731343 0.5 0.035820894 0.040677965
0 0.71791047 0.50338984 0.035820894 0.040677965
0 0.86567163 0.5 0.035820894 0.040677965
1 0.1358209 0.7737288 0.053731345 0.120338984
1 0.28134328 0.2279661 0.055223882 0.120338984
1 0.42537314 0.77457625 0.053731345 0.118644066
1 0.5716418 0.22881356 0.053731345 0.118644066
1 0.71791047 0.77457625 0.053731345 0.118644066
1 0.8634328 0.22881356 0.055223882 0.118644066
4 0.13656716 0.6118644 0.046268657 0.054237287
4 0.2828358 0.3898305 0.046268657 0.054237287
4 0.42611942 0.6110169 0.046268657 0.055932205
4 0.5708955 0.3898305 0.046268657 0.054237287
4 0.71791047 0.6110169 0.047761194 0.055932205
4 0.8641791 0.3898305 0.04477612 0.050847456
6 0.791791 0.5 0.117910445 0.013559322
6 0.6455224 0.49915254 0.11492537 0.011864407
6 0.49925372 0.5 0.11492537 0.013559322
6 0.3544776 0.50084746 0.11492537 0.011864407
6 0.20820895 0.49915254 0.11492537 0.011864407
