2 0.086440675 0.10795455 0.05762712 0.038636364
2 0.91271186 0.2284091 0.055932205 0.038636364
2 0.086440675 0.3465909 0.05762712 0.038636364
2 0.91271186 0.4659091 0.055932205 0.038636364
2 0.086440675 0.5846591 0.05762712 0.0375
2 0.91271186 0.70454544 0.055932205 0.038636364
2 0.086440675 0.8238636 0.05762712 0.038636364
3 0.2601695 0.4125 0.27966103 0.10454545
3 0.7432203 0.29375 0.2762712 0.10568182
3 0.7432203 0.5335227 0.2762712 0.10568182
3 0.2618644 0.6528409 0.2762712 0.10568182
3 0.2618644 0.89261365 0.2762712 0.10568182
3 0.2601695 0.17386363 0.27966103 0.10454545
3 0.7415254 0.77329546 0.2762712 0.10568182
0 0.5 0.10852273 0.14915255 0.101136364
0 0.49915254 0.8232955 0.14745763 0.09659091
0 0.49915254 0.7039773 0.14745763 0.09659091
0 0.5 0.58352274 0.14915255 0.09659091
0 0.5 0.4653409 0.14915255 0.09659091
0 0.5 0.34602273 0.14915255 0.101136364
0 0.49915254 0.22670455 0.14745763 0.09659091
1 0.6559322 0.20340909 0.10169491 0.027272727
1 0.34406778 0.08522727 0.10169491 0.027272727
1 0.6559322 0.44204545 0.10169491 0.027272727
1 0.34406778 0.32272726 0.10169491 0.027272727
1 0.6559322 0.6818182 0.10169491 0.027272727
1 0.34406778 0.5625 0.10169491 0.027272727
1 0.34406778 0.80227274 0.10169491 0.027272727
4 0.50084746 0.10795455 0.062711865 0.038636364
4 0.50338984 0.22727273 0.05762712 0.038636364
4 0.5016949 0.3471591 0.05762712 0.032954544
4 0.5016949 0.46761364 0.05762712 0.032954544
4 0.50338984 0.5869318 0.05762712 0.032954544
4 0.5016949 0.7073864 0.05762712 0.032954544
4 0.49915254 0.8238636 0.052542374 0.03181818
6 0.50084746 0.16647728 0.086440675 0.04431818
6 0.5 0.2869318 0.08135593 0.042045455
6 0.49067795 0.4125 0.1 0.056818184
6 0.5 0.5244318 0.08135593 0.042045455
6 0.49915254 0.64431816 0.08305085 0.043181818
6 0.5 0.76363635 0.08135593 0.04090909
