2 0.6855469 0.12205882 0.13671875 0.10294118
2 0.32128906 0.31470588 0.13867188 0.10294118
2 0.6855469 0.50441176 0.13671875 0.10294118
2 0.3203125 0.69411767 0.13671875 0.10294118
2 0.6855469 0.88529414 0.13671875 0.10294118
3 0.30371094 0.11764706 0.33007812 0.1264706
3 0.69628906 0.31176472 0.31835938 0.1382353
3 0.30371094 0.5029412 0.33007812 0.16470589
3 0.70410156 0.69191176 0.33398438 0.16617647
3 0.30371094 0.8838235 0.33007812 0.11470588
1 0.8652344 0.8838235 0.18359375 0.04117647
1 0.13867188 0.69191176 0.18359375 0.04264706
1 0.8652344 0.5022059 0.18359375 0.04264706
1 0.13867188 0.3139706 0.18359375 0.04264706
1 0.8652344 0.12205882 0.18359375 0.04117647
4 0.68359375 0.121323526 0.10546875 0.06911765
4 0.3203125 0.31323528 0.109375 0.07941177
4 0.6875 0.5022059 0.05078125 0.080882356
4 0.31933594 0.69411767 0.099609375 0.07941177
4 0.6875 0.88529414 0.09375 0.061764706
6 0.4873047 0.31323528 0.037109375 0.19117647
6 0.48535156 0.6933824 0.037109375 0.19264705
6 0.5185547 0.5022059 0.037109375 0.19264705
6 0.5185547 0.88308823 0.037109375 0.19264705
6 0.5185547 0.120588236 0.037109375 0.19117647
