2 0.2851153 0.18849841 0.11320755 0.025559105
2 0.2851153 0.60383385 0.11320755 0.025559105
2 0.7243187 0.39616615 0.115303986 0.025559105
2 0.7243187 0.8115016 0.115303986 0.025559105
2 0.40461215 0.9169329 0.197065 0.025559105
2 0.6048218 0.08306709 0.19916143 0.025559105
3 0.8983229 0.80990416 0.1572327 0.19488817
3 0.8993711 0.39696485 0.15932915 0.19329074
3 0.10587002 0.60303515 0.1572327 0.19329074
3 0.10587002 0.18610224 0.1572327 0.19329074
0 0.5020964 0.8115016 0.2327044 0.17571884
0 0.5031447 0.60383385 0.23060797 0.17571884
0 0.5031447 0.39616615 0.23060797 0.17571884
0 0.5031447 0.18690096 0.23060797 0.17571884
4 0.4538784 0.8123003 0.06918239 0.052715655
4 0.45597485 0.6046326 0.064989515 0.052715655
4 0.45597485 0.39696485 0.064989515 0.052715655
4 0.45597485 0.18849841 0.064989515 0.0543131
5 0.5492662 0.81070286 0.0754717 0.06230032
5 0.5492662 0.6046326 0.0754717 0.06230032
5 0.5492662 0.39696485 0.0754717 0.06230032
5 0.5492662 0.18610224 0.0754717 0.06230032
6 0.5020964 0.5 0.3249476 0.8722045
