2 0.45084745 0.56666666 0.023728814 0.07586207
2 0.45084745 0.8574713 0.023728814 0.07586207
2 0.45084745 0.27643678 0.023728814 0.077011496
2 0.5483051 0.4229885 0.025423728 0.07586207
2 0.5483051 0.7137931 0.025423728 0.07586207
2 0.5483051 0.13218391 0.025423728 0.07586207
3 0.7440678 0.13563219 0.3457627 0.089655176
3 0.2559322 0.2816092 0.3457627 0.089655176
3 0.74491525 0.4275862 0.34406778 0.089655176
3 0.2559322 0.5729885 0.3457627 0.0908046
3 0.7440678 0.7172414 0.3457627 0.089655176
3 0.2559322 0.8637931 0.3457627 0.0908046
0 0.63728815 0.5718391 0.3220339 0.093103446
0 0.6389831 0.86321837 0.3220339 0.09195402
0 0.36186442 0.42586207 0.320339 0.093103446
0 0.36355934 0.7178161 0.320339 0.093103446
0 0.63728815 0.28103447 0.3220339 0.093103446
0 0.36271188 0.13563219 0.3220339 0.09195402
1 0.13898306 0.13563219 0.098305084 0.03448276
1 0.13898306 0.4275862 0.098305084 0.03448276
1 0.13898306 0.7183908 0.098305084 0.03448276
1 0.8576271 0.28045976 0.098305084 0.03448276
1 0.8576271 0.5724138 0.098305084 0.03448276
1 0.8576271 0.86321837 0.098305084 0.03448276
4 0.29067796 0.13448276 0.062711865 0.04367816
4 0.7084746 0.2816092 0.050847456 0.04367816
4 0.29067796 0.42528737 0.062711865 0.04367816
4 0.7127119 0.5718391 0.06949153 0.042528737
4 0.29067796 0.71666664 0.062711865 0.042528737
4 0.7118644 0.86264366 0.06779661 0.042528737
5 0.4262712 0.13505746 0.072881356 0.04942529
5 0.57033896 0.27931035 0.072881356 0.050574712
5 0.4279661 0.42643678 0.072881356 0.050574712
5 0.5720339 0.5706897 0.072881356 0.04942529
5 0.4279661 0.7178161 0.072881356 0.04942529
5 0.5720339 0.86264366 0.072881356 0.04942529
6 0.5 0.088505745 0.016949153 0.07126437
6 0.5 0.20747127 0.016949153 0.12298851
6 0.5 0.35287356 0.016949153 0.12413793
6 0.5 0.49770114 0.016949153 0.12413793
6 0.5 0.6436782 0.016949153 0.12413793
6 0.5 0.79022986 0.016949153 0.12528735
6 0.5 0.9086207 0.016949153 0.07011494
