3 0.21582031 0.77549577 0.12695312 0.15722379
3 0.7763672 0.9015581 0.13085938 0.15722379
3 0.21582031 0.5177054 0.12695312 0.15722379
3 0.77734375 0.6437677 0.12890625 0.15722379
3 0.21582031 0.25991502 0.12695312 0.15722379
3 0.77734375 0.3888102 0.12890625 0.15155807
3 0.7763672 0.13101983 0.13085938 0.15155807
0 0.44140625 0.09915014 0.16015625 0.11614731
0 0.5517578 0.2273371 0.16601562 0.11473088
0 0.4423828 0.35339943 0.15820312 0.11473088
0 0.5498047 0.48229462 0.15820312 0.11473088
0 0.4423828 0.6097734 0.15820312 0.11473088
0 0.5498047 0.7372521 0.15820312 0.11473088
0 0.4404297 0.8647309 0.15820312 0.11473088
1 0.33007812 0.8626062 0.05859375 0.08215298
1 0.6591797 0.73796034 0.060546875 0.08215298
1 0.33496094 0.6062323 0.060546875 0.08215298
1 0.66308594 0.4815864 0.060546875 0.08215298
1 0.33496094 0.34985834 0.060546875 0.08215298
1 0.66015625 0.22521247 0.06640625 0.08215298
1 0.33007812 0.10339943 0.05859375 0.08215298
4 0.44140625 0.8668555 0.0546875 0.036827195
4 0.5498047 0.73796034 0.056640625 0.04249292
4 0.4423828 0.6097734 0.056640625 0.04390935
4 0.5488281 0.48087817 0.0546875 0.04390935
4 0.4404297 0.35339943 0.056640625 0.04390935
4 0.5498047 0.2273371 0.056640625 0.04390935
4 0.44140625 0.09915014 0.0546875 0.04249292
5 0.78222656 0.8109065 0.060546875 0.02691218
5 0.21679688 0.684136 0.05859375 0.028328612
5 0.78222656 0.5566572 0.060546875 0.028328612
5 0.21679688 0.42705384 0.05859375 0.02691218
5 0.78222656 0.3009915 0.060546875 0.02691218
5 0.21679688 0.17067988 0.05859375 0.02691218
5 0.78222656 0.043201134 0.060546875 0.02691218
