3 0.77549577 0.7841797 0.15722379 0.12695312
3 0.9015581 0.22363281 0.15722379 0.13085938
3 0.5177054 0.7841797 0.15722379 0.12695312
3 0.6437677 0.22265625 0.15722379 0.12890625
3 0.25991502 0.7841797 0.15722379 0.12695312
3 0.3888102 0.22265625 0.15155807 0.12890625
3 0.13101983 0.22363281 0.15155807 0.13085938
0 0.09915014 0.55859375 0.11614731 0.16015625
0 0.2273371 0.4482422 0.11473088 0.16601562
0 0.35339943 0.5576172 0.11473088 0.15820312
0 0.48229462 0.4501953 0.11473088 0.15820312
0 0.6097734 0.5576172 0.11473088 0.15820312
0 0.7372521 0.4501953 0.11473088 0.15820312
0 0.8647309 0.5595703 0.11473088 0.15820312
1 0.8626062 0.6699219 0.08215298 0.05859375
1 0.73796034 0.3408203 0.08215298 0.060546875
1 0.6062323 0.66503906 0.08215298 0.060546875
1 0.4815864 0.33691406 0.08215298 0.060546875
1 0.34985834 0.66503906 0.08215298 0.060546875
1 0.22521247 0.33984375 0.08215298 0.06640625
1 0.10339943 0.6699219 0.08215298 0.05859375
4 0.8668555 0.55859375 0.036827195 0.0546875
4 0.73796034 0.4501953 0.04249292 0.056640625
4 0.6097734 0.5576172 0.04390935 0.056640625
4 0.48087817 0.45117188 0.04390935 0.0546875
4 0.35339943 0.5595703 0.04390935 0.056640625
4 0.2273371 0.4501953 0.04390935 0.056640625
4 0.09915014 0.55859375 0.04249292 0.0546875
5 0.8109065 0.21777344 0.02691218 0.060546875
5 0.684136 0.7832031 0.028328612 0.05859375
5 0.5566572 0.21777344 0.028328612 0.060546875
5 0.42705384 0.7832031 0.02691218 0.05859375
5 0.3009915 0.21777344 0.02691218 0.060546875
5 0.17067988 0.7832031 0.02691218 0.05859375
5 0.043201134 0.21777344 0.02691218 0.060546875
