2 0.65625 0.2441349 0.1171875 0.08944281
2 0.3330078 0.11583578 0.119140625 0.08797654
2 0.65625 0.50073314 0.1171875 0.08944281
2 0.3330078 0.37243402 0.119140625 0.08797654
2 0.65722656 0.7580645 0.119140625 0.08797654
2 0.3330078 0.6297654 0.119140625 0.08944281
2 0.33203125 0.8863636 0.1171875 0.08944281
3 0.22070312 0.8878299 0.1015625 0.1744868
3 0.76953125 0.7573314 0.109375 0.1744868
3 0.22070312 0.63269794 0.1015625 0.1744868
3 0.76953125 0.5021994 0.109375 0.1744868
3 0.21972656 0.37463343 0.099609375 0.1744868
3 0.76953125 0.2441349 0.109375 0.1744868
3 0.21972656 0.11803519 0.099609375 0.1744868
0 0.49121094 0.11803519 0.052734375 0.039589442
0 0.49316406 0.2441349 0.052734375 0.039589442
0 0.49121094 0.37316716 0.052734375 0.039589442
0 0.4921875 0.50073314 0.0546875 0.039589442
0 0.49121094 0.6297654 0.052734375 0.039589442
0 0.49316406 0.7573314 0.052734375 0.039589442
0 0.49121094 0.8863636 0.052734375 0.039589442
1 0.54785156 0.8856305 0.052734375 0.06744868
1 0.4423828 0.7580645 0.052734375 0.06744868
1 0.54003906 0.63123167 0.052734375 0.06891496
1 0.4345703 0.5043988 0.052734375 0.06744868
1 0.546875 0.37536657 0.0546875 0.06744868
1 0.4423828 0.24926686 0.052734375 0.06744868
1 0.54785156 0.11730205 0.052734375 0.06744868
4 0.3310547 0.8863636 0.056640625 0.03665689
4 0.65722656 0.7580645 0.056640625 0.04398827
4 0.32910156 0.6297654 0.056640625 0.045454547
4 0.65722656 0.5021994 0.056640625 0.03665689
4 0.32910156 0.37463343 0.056640625 0.045454547
4 0.65722656 0.2441349 0.056640625 0.045454547
4 0.3310547 0.11730205 0.056640625 0.04105572
6 0.4921875 0.06378299 0.0234375 0.071847506
6 0.49414062 0.17961876 0.01171875 0.08944281
6 0.49316406 0.30938417 0.013671875 0.09090909
6 0.4921875 0.43841642 0.01171875 0.09090909
6 0.49316406 0.5659824 0.013671875 0.09090909
6 0.49316406 0.6935484 0.013671875 0.09090909
6 0.4921875 0.82111436 0.01171875 0.09090909
6 0.49316406 0.9376833 0.013671875 0.0659824
