2 0.07217165 0.17801048 0.08192458 0.16753927
2 0.43172953 0.17801048 0.08322497 0.16753927
2 0.79128736 0.17801048 0.08192458 0.16753927
2 0.25227568 0.84816754 0.078023404 0.16230367
2 0.6105332 0.84947646 0.08192458 0.16492146
3 0.16059817 0.40706807 0.13654096 0.15968587
3 0.51820546 0.40968585 0.13914174 0.15968587
3 0.87711316 0.40968585 0.13914174 0.15968587
3 0.6976593 0.61649215 0.13914174 0.15968587
3 0.3394018 0.61649215 0.14044213 0.15968587
0 0.5156047 0.39528796 0.18855657 0.2460733
0 0.873212 0.39528796 0.18855657 0.2460733
0 0.33485046 0.63481677 0.18855657 0.2486911
0 0.156697 0.39528796 0.18855657 0.2460733
0 0.6950585 0.63350785 0.18855657 0.2460733
1 0.3394018 0.45287958 0.078023404 0.083769634
1 0.6957087 0.45287958 0.078023404 0.083769634
1 0.87386215 0.57329845 0.078023404 0.083769634
1 0.5149545 0.57329845 0.078023404 0.083769634
1 0.15994799 0.57329845 0.078023404 0.083769634
4 0.25227568 0.84424084 0.039011702 0.081151836
4 0.07347204 0.17801048 0.048114434 0.083769634
4 0.43172953 0.18586387 0.046814043 0.083769634
4 0.6105332 0.84947646 0.048114434 0.081151836
4 0.78998697 0.17801048 0.053315993 0.09947644
