2 0.44 0.34743413 0.016 0.020804439
2 0.8365 0.64355063 0.017 0.022191402
2 0.1425 0.3481276 0.017 0.022191402
2 0.7315 0.34674063 0.017 0.022191402
2 0.25 0.6414702 0.016 0.020804439
2 0.5415 0.64424413 0.017 0.023578363
3 0.1885 0.7718447 0.161 0.22884881
3 0.4855 0.7718447 0.161 0.22884881
3 0.7805 0.76976424 0.161 0.23300971
3 0.5 0.21983357 0.156 0.22330096
3 0.794 0.22122052 0.162 0.22052705
3 0.2115 0.21983357 0.161 0.22330096
0 0.1225 0.4923717 0.037 0.04993065
0 0.269 0.49375868 0.038 0.04993065
0 0.4155 0.4923717 0.037 0.04993065
0 0.5625 0.49375868 0.037 0.04993065
0 0.7095 0.4923717 0.037 0.04993065
0 0.8565 0.4923717 0.037 0.04993065
4 0.098 0.351595 0.038 0.11511789
4 0.373 0.34743413 0.08 0.09015257
4 0.6695 0.34535366 0.067 0.09431345
4 0.3175 0.64285713 0.075 0.14008322
4 0.606 0.6400832 0.074 0.10402219
4 0.911 0.64424413 0.104 0.07905687
6 0.9205 0.4923717 0.099 0.024965325
6 0.063 0.49583912 0.09 0.026352288
6 0.1955 0.49514562 0.117 0.0138696255
6 0.3425 0.49514562 0.117 0.0138696255
6 0.4895 0.49514562 0.117 0.0138696255
6 0.6365 0.49514562 0.117 0.0138696255
6 0.7825 0.49514562 0.117 0.0138696255
