2 0.7480469 0.060029283 0.0234375 0.017569546
2 0.7480469 0.35431919 0.0234375 0.017569546
2 0.7480469 0.6442167 0.0234375 0.017569546
2 0.74609375 0.9326501 0.0234375 0.017569546
2 0.34570312 0.7862372 0.0234375 0.017569546
2 0.34570312 0.4978038 0.0234375 0.017569546
2 0.34570312 0.20644216 0.0234375 0.017569546
3 0.68652344 0.1398243 0.15429688 0.13616398
3 0.70214844 0.46486092 0.123046875 0.18887262
3 0.68652344 0.7489019 0.15429688 0.1830161
3 0.7470703 0.9729136 0.033203125 0.054172765
3 0.29882812 0.87115663 0.125 0.13469985
3 0.29882812 0.6039531 0.125 0.17423134
3 0.3125 0.30893117 0.09765625 0.17569546
0 0.51464844 0.06295754 0.111328125 0.08199122
0 0.5136719 0.20424597 0.109375 0.08345535
0 0.51464844 0.35505125 0.111328125 0.08345535
0 0.5136719 0.49633968 0.109375 0.08199122
0 0.5136719 0.6442167 0.109375 0.08199122
0 0.51464844 0.7898975 0.111328125 0.08345535
0 0.5136719 0.93338215 0.109375 0.08345535
5 0.5136719 0.060761347 0.0390625 0.021961933
5 0.5126953 0.20424597 0.041015625 0.03953148
5 0.5136719 0.35431919 0.0390625 0.03806735
5 0.51464844 0.6427526 0.041015625 0.04099561
5 0.51464844 0.78696924 0.041015625 0.045387994
5 0.5107422 0.93557835 0.041015625 0.043923866
5 0.5126953 0.49853587 0.041015625 0.045387994
