2 0.7599432 0.41494083 0.17518939 0.3535503
2 0.890625 0.59615386 0.17518939 0.71005917
2 0.6297349 0.5954142 0.17613636 0.71153843
2 0.11079545 0.5976331 0.17613636 0.71005917
2 0.36742425 0.59911245 0.1780303 0.7071006
2 0.5004735 0.41494083 0.17518939 0.3535503
2 0.23863636 0.41568047 0.17613636 0.35207102
3 0.23532197 0.420858 0.14109848 0.19970414
3 0.49857953 0.44304734 0.16193181 0.24408284
3 0.7599432 0.44304734 0.16950758 0.24408284
3 0.10795455 0.8084319 0.13636364 0.24408284
3 0.36600378 0.8010355 0.1278409 0.22928993
3 0.63210225 0.8084319 0.15056819 0.24408284
3 0.88920456 0.7810651 0.14204545 0.19526628
0 0.11032197 0.19526628 0.13162878 0.09171598
0 0.24005681 0.19526628 0.13162878 0.09171598
0 0.37073863 0.19526628 0.13162878 0.09171598
0 0.500947 0.19526628 0.13068181 0.09171598
0 0.6311553 0.19526628 0.13162878 0.09171598
0 0.7618371 0.19526628 0.13162878 0.09171598
0 0.89204544 0.19526628 0.13068181 0.09171598
1 0.3721591 0.19896449 0.083333336 0.063609466
1 0.500947 0.19896449 0.083333336 0.063609466
1 0.6316288 0.19896449 0.083333336 0.063609466
1 0.7604167 0.19896449 0.083333336 0.063609466
1 0.8910985 0.19896449 0.083333336 0.063609466
4 0.10795455 0.09615385 0.03409091 0.056213018
4 0.24337122 0.10281065 0.030303031 0.06952663
4 0.3716856 0.09763314 0.038825758 0.07988165
4 0.6316288 0.10281065 0.047348484 0.06952663
4 0.7594697 0.10281065 0.047348484 0.06952663
4 0.8910985 0.10502958 0.047348484 0.06804734
4 0.50284094 0.09615385 0.047348484 0.06804734
