3 0.23324573 0.27142859 0.08278581 0.46571428
3 0.5078844 0.27142859 0.08278581 0.46571428
3 0.78186595 0.27357143 0.08409987 0.46142858
3 0.3718791 0.30857143 0.02628121 0.39142856
3 0.60841 0.38714287 0.02628121 0.23428571
3 0.912615 0.3557143 0.024967149 0.30285713
3 0.2562418 0.7885714 0.02628121 0.06285714
3 0.544021 0.8428571 0.05256242 0.16571428
3 0.8166886 0.8428571 0.051248357 0.16571428
0 0.21222076 0.6364286 0.18002628 0.19571428
0 0.49211565 0.635 0.18002628 0.19571428
0 0.7628121 0.635 0.18002628 0.19571428
1 0.21419185 0.8371429 0.05256242 0.14857143
1 0.49211565 0.8357143 0.051248357 0.14857143
1 0.7654402 0.83428574 0.051248357 0.14857143
4 0.2128778 0.63714284 0.06044678 0.065714285
4 0.49014455 0.6342857 0.06044678 0.065714285
4 0.76215506 0.6357143 0.06044678 0.06285714
6 0.08278581 0.6357143 0.16557162 0.16
6 0.3541393 0.6357143 0.18002628 0.16
6 0.63140607 0.6357143 0.18002628 0.16
6 0.90735877 0.6364286 0.18528253 0.16142857
